sample size: 65535
min: 201, max: 415;
min: 218, max: 266;
min: 218, max: 266;
min: 215, max: 267;
min: 213, max: 301;
min: 219, max: 256;
min: 221, max: 256;
min: 222, max: 256;
min: 222, max: 256;
min: 221, max: 256;
min: 222, max: 256;
min: 222, max: 256;
min: 219, max: 253;
min: 220, max: 257;
min: 222, max: 256;
min: 222, max: 257;
min: 220, max: 256;
min: 223, max: 256;
min: 224, max: 259;
min: 227, max: 259;
min: 227, max: 260;
min: 227, max: 259;
min: 226, max: 260;
min: 225, max: 257;
min: 224, max: 258;
min: 225, max: 258;
min: 225, max: 257;
min: 225, max: 257;
min: 224, max: 257;
min: 225, max: 257;
min: 224, max: 257;
min: 225, max: 258;
min: 225, max: 257;
min: 225, max: 257;
min: 225, max: 257;
min: 224, max: 257;
min: 224, max: 257;
min: 224, max: 257;
min: 212, max: 271;
min: 212, max: 308;
min: 224, max: 260;
min: 228, max: 260;
min: 233, max: 262;
min: 242, max: 262;
min: 241, max: 262;
min: 243, max: 262;
min: 243, max: 263;
min: 242, max: 262;
min: 243, max: 262;
min: 242, max: 262;
min: 242, max: 262;
min: 243, max: 263;
min: 242, max: 262;
min: 242, max: 262;
min: 242, max: 262;
min: 243, max: 262;
min: 241, max: 263;
min: 243, max: 263;
min: 242, max: 262;
min: 242, max: 262;
min: 240, max: 262;
min: 239, max: 260;
min: 239, max: 260;
min: 239, max: 260;
min: 239, max: 259;
min: 239, max: 260;
min: 239, max: 260;
min: 239, max: 259;
min: 239, max: 259;
min: 240, max: 259;
min: 239, max: 260;
min: 239, max: 259;
min: 239, max: 259;
min: 214, max: 272;
min: 155, max: 288;
min: 227, max: 259;
min: 228, max: 270;
min: 224, max: 303;
min: 241, max: 261;
min: 241, max: 262;
min: 242, max: 262;
min: 242, max: 263;
min: 242, max: 262;
min: 242, max: 263;
min: 242, max: 263;
min: 240, max: 262;
min: 239, max: 262;
min: 242, max: 262;
min: 242, max: 263;
min: 242, max: 262;
min: 242, max: 262;
min: 143, max: 272;
min: 232, max: 265;
min: 229, max: 264;
min: 231, max: 263;
min: 204, max: 591;
min: 196, max: 423;
min: 234, max: 265;
min: 237, max: 264;
min: 236, max: 261;
min: 231, max: 267;
min: 215, max: 514;
min: 236, max: 264;
min: 239, max: 265;
min: 211, max: 506;
min: 231, max: 275;
min: 203, max: 596;
min: 237, max: 265;
min: 119, max: 320;
min: 217, max: 322;
min: 230, max: 264;
min: 223, max: 326;
