10000
9999
0 1904
0 4838
0 6415
0 8328
2 7924
3 2968
3 7697
4 2694
5 2530
5 9817
6 525
7 3826
8 372
9 4092
10 1120
11 1057
11 2061
11 3297
12 402
12 1238
12 4244
12 9334
13 400
13 629
13 2050
14 4231
14 7929
15 769
16 1135
16 1707
17 1728
17 2625
18 225
18 615
20 700
21 747
21 9836
22 1693
22 6926
22 8034
24 926
24 1872
24 1893
26 9457
26 7511
26 355
26 4353
26 4985
27 391
30 7411
30 7635
31 215
31 3616
32 2534
32 3343
32 454
32 541
32 5344
32 6190
33 1219
33 4267
34 2039
34 2640
35 689
36 5233
37 2426
37 3112
37 5436
37 5851
39 89
39 563
39 1156
39 7883
39 7895
40 1414
41 6860
42 4416
42 5121
43 2054
43 5660
44 5744
44 1557
44 4208
44 4696
44 4738
45 103
45 539
45 3860
45 6030
45 9634
46 195
46 1406
46 7986
47 318
47 2931
47 3315
48 1582
48 2480
49 577
49 2599
49 3056
49 3390
49 3994
49 8932
50 818
50 1563
51 1863
51 7059
51 9196
52 3467
54 641
54 7072
55 1187
55 248
55 334
55 1338
55 6336
56 3872
56 9637
57 4747
58 394
58 407
58 256
58 763
58 5358
58 9247
59 952
59 3094
59 4998
61 5795
62 829
62 1849
62 5531
63 1689
63 6074
65 1701
66 1583
67 7709
68 2564
68 4459
68 4861
68 5031
69 143
70 678
70 2286
71 7722
72 7469
73 1387
74 1696
74 5634
75 2273
75 4656
77 1061
77 2241
78 803
78 3019
78 3326
79 1913
79 2792
79 4884
80 532
80 3186
80 5346
80 6182
81 124
81 8690
82 234
82 866
82 5620
82 7389
84 3163
85 1191
85 1370
87 1154
87 9373
88 5176
88 2239
88 950
88 5036
89 4304
90 1912
90 4965
91 640
92 1920
93 2199
93 6025
94 6002
94 2579
94 3348
94 5147
95 1537
96 6191
96 1305
96 496
96 3461
96 6139
96 9956
97 245
97 9331
98 2644
99 5479
99 6407
101 419
102 2362
103 1392
103 2219
103 3952
103 7969
104 2231
104 7058
105 1576
105 4013
105 5857
106 661
107 768
107 1420
108 1155
108 3375
108 3385
109 6830
110 2314
111 2434
111 7434
112 4949
112 5388
113 467
113 1060
113 3554
115 157
115 725
115 3009
116 1166
116 2829
117 9072
117 8208
117 8386
117 4005
117 9631
118 6228
118 7528
119 340
119 2099
119 3095
120 398
120 958
120 1037
121 1501
121 1633
121 8780
122 7889
122 841
122 95
122 8165
123 3254
124 329
124 1704
125 578
125 6165
127 713
127 1673
128 237
128 5841
129 1460
129 3597
129 3903
129 7559
130 8701
132 3734
134 1736
134 6772
135 9081
136 5762
136 2244
137 4568
137 5061
138 2452
138 5263
138 5860
139 4124
139 8825
140 8051
140 8607
141 1622
141 1918
141 4792
141 6935
142 4783
143 7036
144 1119
144 2633
146 9313
147 6905
149 1087
149 1243
150 368
150 2946
150 3188
150 9848
151 9199
152 2876
153 8091
153 4439
153 2517
153 6626
154 227
154 4421
154 7964
156 566
156 880
156 3305
157 376
157 770
157 1199
157 3084
157 4980
158 417
158 8811
160 2952
160 6003
160 8793
161 1418
161 9075
162 6845
162 6064
162 2522
162 2828
163 760
163 1484
163 1894
164 2742
164 3235
164 8032
168 734
168 1715
168 2976
168 6711
169 1680
170 3533
170 9771
171 777
171 5078
171 5965
171 8143
172 1368
172 6754
173 1878
173 2293
174 1270
174 4021
175 2216
175 4624
176 3989
177 7187
179 3229
179 3439
180 2751
180 3738
181 511
183 347
183 1493
183 8477
183 8862
185 903
186 992
186 2008
187 224
187 2342
190 6723
191 4190
192 274
192 2156
192 3209
192 7858
197 2819
198 6784
200 1919
201 2202
202 5414
203 4279
204 2402
206 1317
206 4399
206 110
206 2143
208 1266
209 1033
209 2974
210 681
211 973
212 4437
213 219
214 708
214 1835
215 4388
215 6566
216 8010
217 2560
217 2745
217 6895
218 3
218 1158
220 540
220 8543
222 745
222 1006
222 4596
223 1529
223 6084
223 9178
224 949
224 9866
226 5305
227 2094
227 7084
228 492
229 3488
229 3710
229 8838
230 1267
230 4362
230 2957
230 8529
230 3416
230 4135
230 8310
231 7138
232 3453
232 4035
232 5688
232 8142
233 289
233 2205
233 4709
234 246
234 3772
235 5700
236 1401
236 8253
237 4642
237 5458
237 7445
238 3103
238 1581
239 2070
243 2638
243 4890
244 2707
245 1659
245 2723
245 3050
246 733
246 895
246 3424
246 9798
247 3261
247 7051
248 6645
248 3877
249 1182
249 5386
249 8938
250 443
250 6448
250 170
250 6007
251 1951
251 5324
252 1762
252 2302
252 4778
253 773
253 1542
253 6425
254 1441
254 4628
255 3650
256 1757
256 7290
256 7311
257 4667
258 3066
258 1363
258 1846
259 1129
259 1306
259 3247
259 4761
260 433
261 5676
262 3970
263 3167
263 1905
264 679
264 2230
264 4742
264 9213
265 6508
265 6570
265 7617
266 9237
266 459
266 3620
266 5456
267 2093
268 7279
269 2685
269 4976
270 586
271 6729
272 3395
273 5506
274 9189
275 1486
275 3064
276 1121
276 2201
276 4504
276 5764
277 1569
278 6869
278 513
278 579
278 917
278 1170
279 7022
280 1514
280 2586
281 2718
282 3241
282 1530
282 2185
283 1822
283 4423
284 5056
284 9129
285 2003
285 7476
286 1258
286 1652
286 1793
286 7590
288 9666
289 7561
289 8311
290 930
290 1833
291 9648
291 9607
292 1437
293 1727
293 2379
294 456
294 1123
295 564
295 757
295 1405
295 3973
295 4257
295 5567
296 716
296 2183
298 2754
298 3053
299 9061
300 1925
301 1019
301 9460
302 626
302 3157
303 1177
303 1239
303 2917
304 359
304 723
304 3293
305 5016
306 4871
307 5516
307 9283
308 7500
308 7540
309 1807
309 1862
310 4375
310 6125
312 2186
312 3118
312 5899
312 6808
312 7582
313 7943
313 5568
313 1890
313 7145
313 9517
314 1412
314 5511
315 654
315 1095
315 3521
316 845
316 4009
316 9797
318 607
319 3958
320 1897
320 2920
320 3274
321 5810
321 3868
322 7651
322 9814
322 1003
322 3658
323 2180
324 1188
324 2089
326 667
326 1296
326 1453
326 6610
328 4522
328 5367
328 5879
329 2331
329 4083
329 7142
331 2242
331 2461
332 5466
332 90
332 3827
333 666
334 5373
335 1411
335 3776
335 4847
335 7558
337 1396
340 1702
340 4365
340 6386
341 2664
341 6528
341 6930
342 7886
343 4983
343 2796
343 1562
343 2121
343 6939
344 411
344 2194
344 6305
344 9366
345 6621
345 935
345 988
345 1241
345 4429
346 5813
346 8387
348 1785
348 4947
349 767
349 1398
349 5663
349 7117
350 3492
350 4430
350 7305
351 8498
351 8593
351 2842
351 6119
352 6747
353 618
353 1249
353 5791
354 720
354 888
354 3097
355 1733
355 4725
355 6745
357 2949
358 2551
358 4507
358 9902
359 4052
360 3907
363 5590
363 1118
363 4078
366 1125
367 12
367 1463
367 3015
367 3401
367 7767
368 1111
368 1717
369 2507
369 2684
369 5291
369 7244
371 5278
371 7141
372 4561
373 2042
375 7648
376 4946
377 2356
377 5128
378 6166
379 9551
379 5312
379 7600
380 1039
380 2451
381 931
381 1294
381 3951
381 6675
382 1865
382 2984
382 3472
384 498
384 7284
385 1384
387 3264
387 8247
387 9142
388 1465
389 1217
391 5617
392 1895
392 2889
393 6509
393 8204
394 5750
394 1176
394 1173
394 1527
396 5488
397 5653
398 8585
399 9461
400 7608
400 9795
400 8090
400 2052
400 2398
400 8943
402 1766
403 682
404 468
404 2794
405 1830
405 3057
405 3881
405 9496
406 6264
407 2247
407 5523
407 698
407 9426
409 8673
409 71
409 133
409 6018
410 448
410 8075
410 1454
410 1721
410 8441
413 554
413 3058
413 5799
413 6077
414 3174
414 8171
415 534
415 1105
415 7746
417 7960
418 3052
418 104
420 8746
421 1141
421 1473
421 3932
421 4708
421 8081
423 3130
424 2864
425 1523
425 5379
427 955
428 1252
429 774
430 1709
431 1117
431 1063
432 8686
432 5794
434 6515
435 5891
436 1503
436 1962
437 785
438 844
438 4264
439 247
439 705
440 7263
440 6582
441 1301
441 1750
442 3320
442 4617
443 556
444 1870
445 2243
445 8927
446 3248
447 3944
448 587
448 6506
448 2472
449 573
449 5546
449 5689
450 1602
450 9645
451 685
451 1660
453 2263
453 3752
454 2531
456 1251
458 839
458 784
458 3381
459 6704
460 3596
460 3846
461 5168
462 4352
462 4457
462 6667
462 8375
463 2948
463 3067
463 4148
464 8233
465 3703
465 4016
465 5823
465 7645
466 9901
468 921
468 7242
469 5280
469 6012
470 5313
471 152
471 4697
471 6874
472 1801
472 1873
472 2294
472 5574
473 2189
473 2464
473 5492
474 1792
475 8514
475 5314
476 5193
478 1085
478 3245
478 1806
479 4170
480 4901
480 8362
481 2611
481 7067
482 603
482 789
483 3246
484 4487
485 2119
486 2448
486 3131
487 2148
488 2221
488 9542
489 6470
489 7403
490 4934
490 5302
492 1055
492 1691
492 5586
494 1175
494 3947
495 829
495 8918
495 9929
496 964
496 4536
497 913
497 1670
499 9566
500 5463
500 9895
500 8069
500 4063
500 4873
501 6992
501 1357
501 2945
502 3018
502 6408
502 6812
502 8159
503 7867
503 345
503 38
503 460
503 6809
504 3227
504 61
505 545
505 934
505 2248
505 6027
506 5958
509 9406
511 3008
511 3726
511 4728
511 7849
511 9596
513 919
513 3519
514 2600
515 2526
515 4510
517 1535
518 870
518 8964
518 7750
520 655
520 3921
521 730
522 5137
524 1035
525 1209
526 7199
527 806
527 933
527 1048
530 6094
530 24
531 9006
532 5433
532 8647
533 5007
533 8994
534 1869
534 5018
534 5763
534 7251
534 7504
537 8910
538 625
538 8645
539 1776
539 1929
540 561
540 1939
540 8852
541 1186
541 1617
541 7505
541 8626
542 5375
542 6070
542 8876
543 2862
543 4645
543 4870
543 9032
544 3771
544 6083
544 7041
545 4705
547 3004
547 3253
548 3985
549 2479
549 4071
549 373
549 6559
550 4603
551 553
551 3795
553 749
553 761
553 1362
553 9861
554 722
555 3868
555 161
555 2225
555 9501
556 1354
556 3490
559 929
559 7045
561 1436
562 1235
562 1524
562 2352
562 9274
564 2698
565 2365
567 766
567 6994
568 4694
568 3748
568 1130
568 1674
568 2146
568 2456
568 3372
570 3976
570 2260
571 3888
571 4479
571 5366
571 7165
571 8308
572 9144
573 575
575 1597
575 6564
576 887
576 5930
576 9682
577 1202
577 4516
578 2869
578 6943
579 5970
580 9289
581 1909
581 5758
583 1723
583 5299
585 1964
585 5776
586 4220
586 8777
587 9942
587 1364
588 8380
589 1940
589 2888
590 1630
593 4933
594 1205
594 3407
594 5671
594 5768
594 6638
596 7189
596 1083
596 798
596 1889
596 8003
597 1333
598 835
598 882
598 2759
598 6034
599 3484
599 4073
601 4802
602 3119
604 2128
605 3502
605 7065
607 627
607 1596
607 5727
607 9774
608 9814
608 7626
608 9065
610 2129
611 2549
611 4065
611 7901
613 4991
614 1959
615 1221
615 1977
615 5809
616 5119
617 1703
617 2176
617 3400
617 4919
618 9133
619 4564
619 5281
620 2030
621 3838
621 7049
622 4031
622 4817
622 9357
623 1016
623 1226
623 2935
623 3266
623 4822
624 3429
624 7712
625 3997
626 7537
628 6191
628 6520
628 7596
630 3344
630 4688
631 9872
632 1194
632 1550
632 2396
632 2823
633 2705
634 3147
634 8304
634 9259
634 8275
635 1631
635 9507
637 7296
638 5527
639 1458
639 2252
641 1677
641 4336
642 2164
643 1312
643 3532
643 8374
644 1906
645 5636
646 3591
646 5172
646 6351
647 1066
647 7456
648 5199
648 9114
649 6846
649 8807
649 1367
652 4461
652 4616
652 5601
653 6903
654 1452
655 7715
656 4280
656 7057
656 5426
659 5389
659 8265
660 2647
660 8383
661 707
661 3887
661 8536
662 1106
663 1888
663 2250
663 6346
664 738
664 1094
664 2897
665 7988
666 1684
666 4322
668 192
668 2624
669 6163
670 1395
670 6466
671 717
671 3258
672 2870
674 3035
674 9170
675 1143
675 3063
675 4528
675 8367
676 2513
677 8620
678 1495
678 2211
680 1716
680 7560
682 1809
682 3339
682 5410
683 1667
683 4908
684 2785
684 3072
685 3833
685 4125
685 7716
686 3539
686 4730
686 7373
687 6266
687 6112
688 9509
689 3216
689 8135
690 1127
690 3207
690 5315
691 345
691 1845
691 2675
691 5279
691 4349
692 2504
693 7294
694 9532
694 4455
695 4312
696 3416
696 7790
697 793
697 2882
698 1551
698 2327
698 5500
699 4883
700 3345
700 6859
701 2958
701 8491
702 1021
702 1024
702 4311
702 4841
703 4680
706 4306
706 3557
707 3341
709 3141
709 8770
709 4634
709 2768
709 3582
709 7878
710 1745
710 9292
711 7316
711 145
712 1030
712 5207
713 1427
714 978
714 2874
714 4453
715 1419
718 1573
718 1043
718 2290
718 3648
719 2056
720 8878
721 5357
721 8384
722 7533
722 7876
726 6357
727 2082
727 2535
728 1134
730 753
730 1522
732 2692
732 7337
733 1534
733 7670
734 4106
735 3781
735 4784
735 6360
736 780
736 4888
736 2860
737 1508
737 9510
738 7872
740 7282
740 1500
740 1404
741 5829
742 9552
742 4918
742 1415
744 7363
746 836
746 6062
747 5361
748 5513
750 1462
750 2394
750 7644
751 2761
751 8215
751 8965
752 3367
754 909
755 8108
755 1541
755 1714
755 2909
755 6133
755 6577
756 2865
757 5259
757 7064
758 5161
759 4386
760 4225
760 4615
760 5372
763 1987
764 1756
764 9525
765 536
765 2435
766 1284
766 2265
766 7992
767 4324
767 6293
767 6434
768 2738
768 3916
770 2588
771 8269
772 5498
772 8661
772 2986
772 3677
774 1565
774 8922
775 7121
777 3870
779 2212
779 7854
781 2430
782 1025
782 9636
782 1655
783 3408
783 4804
784 1255
784 3886
785 1114
785 1361
787 6340
787 6536
787 1555
787 6816
787 8523
788 956
789 1131
789 1924
789 7392
789 8321
789 9454
790 3559
791 5082
792 1749
793 4113
793 6044
793 7362
793 8464
793 9743
794 3796
794 5477
794 6029
794 6990
795 3525
795 4407
796 7527
797 897
797 3335
798 1700
798 2218
799 2209
801 1365
801 2232
801 3299
801 3770
802 1683
802 2005
802 2358
802 3843
803 1671
804 313
804 834
804 1040
804 4086
805 8227
806 1664
806 3824
807 1607
807 3323
807 4308
807 7002
807 8984
808 2521
810 2583
810 9444
811 5034
813 6530
813 7511
813 2789
813 712
813 6692
813 4550
813 6603
813 2659
814 2650
815 3863
815 336
815 112
815 6299
816 8562
819 1104
819 3859
819 4129
820 1468
820 3805
820 8766
821 1490
821 4412
822 5837
823 2154
823 4924
824 3099
825 4470
825 7587
826 1337
826 2068
826 9977
827 5289
828 2136
828 5210
828 6483
829 422
830 4201
831 2361
832 1445
833 8300
835 6383
836 1636
836 1992
839 297
839 428
840 5038
841 3074
841 2093
841 8334
841 18
841 239
841 3462
842 3225
842 2791
842 381
842 7214
844 922
844 3292
844 4401
845 5471
845 7997
846 1737
849 2533
850 3194
850 4990
851 4895
852 1153
852 3823
852 9946
853 2691
854 2084
854 7569
855 4737
856 8937
856 9535
856 4249
856 6281
856 7357
857 6692
857 5709
857 650
858 1447
858 2903
858 7223
860 864
861 1189
861 4037
862 1207
862 3141
862 5944
864 4028
864 6883
864 6923
865 9102
866 8540
867 1078
867 5769
869 1014
869 8287
870 3011
870 6026
870 6242
871 1770
871 3334
871 6596
871 7202
874 3152
875 1236
875 4435
875 6108
877 2999
877 6149
878 8400
879 3635
880 2747
880 3479
880 6173
881 1528
881 1908
882 7108
882 8217
883 4017
884 1152
885 303
885 6317
886 9056
886 5429
888 7823
889 1546
889 5081
890 2673
890 2939
891 2040
893 1961
893 2856
894 3673
895 2880
898 2012
898 132
898 1783
898 3705
899 2871
900 593
900 5912
901 8268
902 2977
904 5868
905 1926
905 6759
906 1784
908 948
909 960
909 2158
909 2704
909 4569
910 3926
912 1138
912 8691
912 9558
914 1533
916 1164
916 8136
917 2493
917 5330
918 2299
919 3540
919 4902
919 5368
919 5416
920 8386
920 2483
921 8341
922 1482
924 5889
924 5293
924 365
924 977
924 4578
924 6382
925 5384
926 2009
926 4774
926 5626
927 1280
929 4087
930 1318
930 2632
931 3672
932 8145
932 389
932 455
932 2408
932 5219
933 6331
934 5404
935 4768
935 2454
935 9435
936 4325
936 5649
936 351
936 1062
937 3410
938 1954
939 2657
939 9328
940 4564
940 1099
941 1376
941 2468
943 2885
943 9765
946 3548
947 8260
947 4633
948 4831
948 8415
949 1922
950 3544
950 194
951 2163
951 13
951 9356
951 6178
951 775
951 967
951 3514
951 3998
951 7981
952 6510
952 9037
953 1612
953 2051
954 1001
955 3398
956 2363
957 1697
959 4451
960 5071
962 2196
962 3355
962 8080
963 2261
964 1788
967 1223
967 7643
967 8030
969 3580
970 2150
970 3630
974 1058
974 1300
975 2169
975 4347
976 3964
977 3279
978 4698
979 8213
980 2799
980 3625
981 3713
982 2760
982 4133
983 7158
984 2843
984 3691
985 6688
985 7891
986 2770
986 4637
987 2351
988 3319
988 5421
991 4753
992 1065
993 1616
993 2424
993 2489
993 4921
994 4143
995 4335
998 7957
999 3965
999 4293
999 6877
999 9107
1000 4787
1001 2516
1002 4134
1002 2059
1002 139
1002 1765
1003 2512
1003 6836
1004 4166
1004 4385
1005 2991
1005 3140
1006 7819
1006 8092
1006 8564
1007 1632
1007 1814
1007 9914
1008 8709
1008 5
1008 1234
1009 1013
1009 4022
1009 891
1009 989
1009 1402
1009 8000
1010 1774
1010 281
1012 4857
1013 7977
1015 2904
1015 5040
1016 2319
1017 7237
1017 9724
1018 9202
1019 1237
1019 7832
1020 8887
1021 9983
1022 8486
1023 4551
1023 6204
1024 1567
1024 2120
1024 3437
1025 8813
1026 2593
1028 8474
1030 1457
1030 1759
1030 4427
1030 8044
1031 474
1031 1079
1031 1619
1031 1936
1031 9152
1032 5475
1033 1708
1033 6219
1034 4105
1035 1635
1035 4157
1036 3033
1037 2437
1037 6623
1038 4127
1038 6890
1041 1787
1042 3290
1042 6412
1043 2844
1044 9355
1044 9901
1044 614
1044 1864
1044 2494
1044 2677
1045 1400
1045 2073
1045 494
1045 4339
1045 4602
1045 5142
1046 6243
1046 435
1046 1026
1046 1126
1046 9017
1047 4648
1047 1971
1048 4566
1048 9329
1049 1179
1049 3733
1050 7402
1050 1416
1050 5482
1050 9314
1051 3336
1051 8434
1052 7173
1053 1995
1053 3779
1054 8033
1054 3249
1055 9800
1056 8928
1056 6057
1056 8553
1058 2401
1058 3999
1060 7764
1061 5968
1062 4599
1062 5144
1063 1302
1063 4532
1063 9120
1065 1325
1065 6449
1065 7053
1066 5501
1067 7766
1067 1133
1067 2514
1067 167
1067 2598
1068 1091
1068 7554
1069 1082
1069 1639
1070 6064
1070 1116
1072 8528
1072 549
1072 1877
1073 559
1073 597
1078 2047
1078 2071
1080 3578
1082 7032
1083 6091
1085 1713
1085 2420
1085 4638
1086 4863
1087 8506
1090 3244
1090 4686
1090 9273
1091 1730
1091 1875
1092 3917
1092 5594
1092 6657
1093 7513
1093 9281
1094 7447
1095 1283
1095 2432
1096 2703
1096 3006
1096 5778
1097 8604
1098 4627
1099 3822
1101 2881
1101 4565
1103 6551
1104 3150
1106 1183
1106 4771
1106 8237
1107 7783
1107 8518
1108 3608
1109 9359
1109 229
1109 574
1109 5698
1109 7304
1110 4581
1111 5019
1112 2710
1113 6460
1114 1299
1114 1641
1114 1643
1114 8361
1115 4215
1115 6019
1115 9237
1115 2000
1115 3301
1115 5915
1116 5228
1116 362
1116 453
1117 5963
1117 9378
1117 14
1117 166
1119 1444
1119 1594
1119 9487
1122 1386
1125 5846
1126 3135
1126 3657
1127 5088
1129 1850
1129 2500
1129 5251
1130 1316
1131 1521
1131 3384
1132 6271
1133 5643
1133 2081
1133 2688
1133 8668
1136 1943
1137 3976
1137 2228
1137 7789
1137 855
1137 1832
1140 8360
1140 8779
1141 6576
1141 8928
1141 7412
1141 2372
1141 8582
1142 6896
1142 2854
1142 113
1142 1289
1142 7486
1144 7811
1144 8411
1145 1359
1145 9157
1146 6534
1148 4438
1148 4689
1149 7923
1149 3303
1150 9656
1150 9409
1151 2305
1151 9424
1153 3537
1154 5932
1157 471
1158 6773
1158 8769
1159 1675
1160 4254
1160 1985
1160 4233
1160 7325
1161 1291
1161 3675
1161 7164
1162 8947
1163 326
1163 1159
1163 3545
1164 1560
1165 3111
1165 5897
1166 1682
1166 1796
1166 2476
1166 2646
1166 8858
1167 6350
1168 5936
1170 1881
1170 3134
1173 4635
1173 5683
1174 970
1174 9493
1175 5924
1176 5819
1176 520
1176 647
1176 4805
1178 5342
1184 1027
1186 3327
1186 5002
1187 3373
1187 3469
1187 7669
1189 4741
1189 5020
1191 1857
1191 6770
1192 8334
1192 232
1192 1339
1192 4358
1193 7166
1195 7210
1195 3981
1195 4959
1196 5708
1196 1206
1197 6882
1197 9103
1199 3446
1199 3626
1200 6158
1200 8809
1201 5318
1201 5803
1203 3257
1203 4230
1203 594
1203 6502
1204 3858
1204 8801
1205 3218
1207 7794
1207 52
1207 175
1208 178
1208 2117
1209 5052
1210 1931
1210 2890
1210 7342
1210 8205
1211 3943
1212 6562
1213 3574
1214 5539
1215 1297
1216 8739
1217 1327
1220 1844
1220 1984
1220 7256
1221 3438
1221 5545
1221 7098
1222 2725
1222 6868
1223 2367
1224 4875
1224 2237
1224 9206
1226 4953
1226 6113
1227 1884
1227 5124
1228 1874
1228 3908
1229 6014
1230 2251
1232 2006
1234 2370
1234 9060
1235 2731
1235 6787
1237 1340
1237 3280
1237 5696
1237 8295
1237 9295
1238 4643
1239 1871
1239 1949
1239 8601
1240 2729
1241 1377
1241 5737
1243 1618
1244 5805
1244 7734
1245 2597
1247 1536
1247 4219
1249 1275
1249 1848
1249 7280
1250 3370
1251 1423
1252 1789
1255 1549
1256 2199
1256 918
1256 3212
1257 9431
1259 2135
1260 3180
1260 6073
1261 3198
1261 214
1261 299
1261 6852
1262 4519
1262 6369
1262 6785
1263 3489
1263 7760
1263 3974
1264 5102
1265 3629
1265 3743
1266 8309
1267 282
1267 7951
1267 116
1267 1248
1267 3759
1267 9497
1269 6547
1270 1860
1270 5201
1272 6732
1272 2111
1273 7947
1274 4330
1276 4020
1276 524
1277 5041
1278 1650
1278 5073
1280 1410
1281 4199
1281 4546
1281 7679
1282 4057
1282 7451
1283 2035
1283 9365
1285 4149
1286 1755
1286 2433
1286 3598
1286 7286
1287 3706
1290 1332
1290 8724
1292 9508
1292 2174
1292 854
1292 3002
1294 2478
1294 2853
1294 5316
1294 5844
1297 3380
1297 4394
1297 6148
1298 6223
1299 4979
1300 9411
1301 1637
1301 2720
1303 8226
1303 5917
1303 1076
1303 1815
1304 1498
1304 5797
1304 7457
1304 7914
1305 5814
1308 2096
1310 2868
1311 974
1312 1435
1312 7502
1313 1476
1313 3170
1314 8837
1315 9805
1315 493
1315 5415
1317 870
1317 4341
1317 7536
1319 3639
1319 6737
1321 5507
1324 3782
1325 3825
1328 1609
1328 1937
1329 9280
1330 5286
1331 5148
1332 1540
1332 2184
1332 2701
1332 7452
1332 7611
1333 4850
1333 5512
1334 1626
1334 5265
1335 8542
1336 1731
1337 4367
1338 7376
1339 2193
1340 1974
1340 4067
1340 4377
1340 4975
1341 9906
1341 4877
1341 7210
1342 2722
1342 446
1342 4045
1342 4606
1343 2936
1343 7728
1343 5012
1344 1438
1346 7784
1346 9593
1346 1002
1346 7249
1346 212
1347 1786
1347 7346
1349 2630
1349 8318
1350 3049
1351 1373
1351 7091
1351 8327
1353 2074
1354 3496
1354 9000
1355 4886
1355 8432
1356 874
1356 2561
1357 9162
1358 687
1358 149
1358 1264
1358 2161
1359 7918
1359 9757
1361 6601
1362 3651
1363 9661
1363 5914
1364 1933
1365 1539
1365 2177
1365 2919
1368 5256
1368 7105
1372 9647
1373 2368
1373 5079
1373 5155
1375 6261
1376 3704
1376 6767
1377 3609
1378 7320
1379 8050
1379 7446
1379 6656
1380 1775
1380 3716
1381 6632
1383 8013
1383 9007
1385 4305
1385 4560
1385 9739
1386 1999
1386 5991
1386 7717
1386 9087
1387 3755
1387 5751
1387 6146
1388 6248
1388 2623
1388 6085
1389 3790
1390 2883
1390 8389
1391 1502
1392 6611
1393 137
1393 1588
1393 2385
1394 1802
1394 2604
1394 3702
1394 6798
1395 5049
1397 5294
1399 4601
1399 9214
1400 1896
1400 4610
1400 3031
1400 4466
1402 6353
1403 6786
1404 2873
1405 2814
1405 4441
1405 6505
1405 9143
1406 4702
1407 1570
1408 3298
1408 4047
1408 4116
1408 4867
1409 7374
1409 8063
1411 2893
1411 4825
1411 7268
1412 2908
1412 5306
1412 5765
1413 9967
1413 1592
1413 588
1413 4821
1414 1649
1414 4862
1415 3817
1416 1694
1416 3709
1416 9465
1417 2449
1418 2114
1418 3682
1418 3913
1419 3270
1420 4717
1421 2696
1422 2015
1422 2192
1422 2421
1423 1917
1423 4144
1423 9126
1425 9523
1426 1483
1426 2024
1427 6432
1427 8824
1429 3897
1431 2491
1433 5162
1434 4387
1434 3653
1434 1072
1434 7768
1434 8803
1434 9577
1435 3311
1436 2326
1437 1842
1437 2023
1438 5470
1438 6295
1439 7671
1440 1481
1440 4525
1441 3062
1442 7870
1442 142
1442 5985
1444 1738
1444 2307
1444 2695
1444 3920
1445 3736
1445 5989
1447 1456
1447 3914
1447 5790
1448 3324
1448 5239
1449 4344
1449 9024
1449 9735
1450 5434
1450 6963
1451 7487
1451 9047
1455 3885
1456 2335
1456 7238
1457 7188
1458 5408
1459 2125
1459 6957
1459 7612
1460 8615
1461 2942
1462 2157
1462 2381
1462 3835
1464 3654
1465 8404
1466 3362
1466 4492
1467 9677
1468 2827
1468 6679
1469 1504
1469 4303
1469 4591
1471 4268
1471 7547
1471 8118
1472 1712
1472 1838
1472 8929
1473 2249
1473 2767
1473 4499
1474 7414
1474 6507
1474 744
1475 4449
1475 4798
1476 5292
1476 7555
1476 9920
1477 9192
1477 8219
1477 6600
1477 6861
1478 2622
1480 8085
1481 3739
1482 2418
1482 6567
1484 9602
1485 9168
1487 1748
1487 3153
1488 5952
1488 4788
1488 2693
1488 3509
1490 5465
1491 7672
1492 2845
1493 8448
1494 4875
1494 1556
1494 2191
1495 1837
1495 1981
1495 6981
1496 2556
1497 1935
1497 7522
1497 4683
1497 643
1497 1886
1499 8854
1501 3093
1501 2496
1501 2714
1501 9486
1503 1955
1504 4882
1505 8264
1505 6589
1505 3697
1506 2445
1506 3801
1507 8065
1507 787
1509 3020
1510 8027
1510 9653
1511 3972
1512 4722
1512 7655
1513 2386
1514 5182
1514 8216
1515 2090
1517 3092
1519 2048
1519 2275
1520 9036
1522 2377
1522 3203
1523 2733
1523 6801
1526 4259
1526 4963
1526 5188
1527 3283
1527 3968
1528 7713
1529 7863
1531 2467
1532 8639
1532 2832
1532 6940
1532 1372
1532 4140
1533 2683
1533 7937
1534 1883
1534 1993
1536 2898
1536 7660
1537 8799
1540 1686
1541 1829
1541 9130
1542 2380
1542 3268
1543 5097
1544 1706
1544 4842
1544 6356
1546 2724
1546 5319
1548 6126
1548 2818
1548 6598
1548 999
1548 1355
1548 7259
1549 5767
1552 2781
1553 900
1553 2877
1553 3506
1554 6319
1554 5273
1555 2547
1556 9446
1557 5011
1558 6777
1559 2044
1560 8130
1561 7169
1564 9268
1564 2902
1564 4175
1564 5232
1566 1834
1566 1952
1566 4958
1566 7116
1568 8290
1568 1625
1569 2492
1570 3316
1570 5095
1570 8427
1571 4100
1571 9466
1572 3902
1572 4212
1572 6442
1573 108
1573 724
1574 2506
1575 1739
1575 1752
1576 2328
1576 5218
1577 509
1577 2267
1577 5167
1580 1902
1580 6388
1582 6175
1584 2855
1584 5459
1584 8561
1585 1227
1585 605
1585 1259
1586 1710
1586 2474
1586 5103
1586 6584
1588 1945
1589 8087
1589 8743
1589 5901
1589 6942
1589 7779
1590 6463
1590 35
1590 349
1590 759
1590 3177
1592 1611
1592 2542
1593 1767
1593 4062
1595 7
1598 765
1598 160
1600 505
1602 2741
1604 4408
1605 2122
1605 2153
1605 4184
1606 172
1607 4120
1609 4833
1609 7665
1612 2515
1612 6672
1612 7475
1613 5597
1614 2220
1614 5793
1614 6421
1615 2355
1615 3129
1616 2458
1617 2528
1618 1695
1618 2590
1618 6023
1618 8759
1621 4864
1621 9177
1622 4906
1623 1090
1626 8640
1627 8923
1627 2610
1627 4447
1627 8791
1627 242
1627 4323
1628 3840
1629 7167
1631 3588
1631 7241
1631 8635
1631 8868
1632 2861
1633 4988
1633 5867
1634 1424
1634 5654
1635 3037
1635 3286
1638 1997
1638 6100
1640 2011
1642 4378
1646 2552
1646 386
1646 5077
1647 2375
1648 9457
1648 634
1648 8303
1650 7493
1651 8083
1651 53
1651 2383
1651 4260
1652 5156
1653 3151
1653 6405
1653 6437
1654 5880
1656 3269
1657 3618
1657 5269
1658 2523
1658 5940
1658 7003
1659 1666
1660 2578
1661 2041
1663 3040
1663 3730
1664 1953
1664 4701
1664 9021
1666 1916
1666 2453
1666 6791
1669 8623
1669 2037
1669 2975
1670 4161
1670 7629
1671 5707
1671 7401
1672 1610
1672 316
1672 598
1672 4050
1675 4276
1676 8762
1676 8944
1677 3769
1677 6237
1678 1497
1678 8169
1678 1512
1678 2142
1679 7844
1679 1267
1680 2151
1680 3259
1680 5787
1681 9027
1683 2315
1683 8678
1684 1803
1684 4043
1685 8076
1687 3569
1688 7327
1688 3213
1688 1516
1688 2285
1688 4238
1688 8710
1692 4579
1692 3922
1694 4027
1694 5554
1696 3792
1698 2279
1699 2658
1699 4012
1701 5376
1704 7739
1705 3110
1706 3122
1707 5656
1708 3291
1709 5871
1710 1969
1710 2187
1710 6555
1711 1746
1711 5505
1711 6757
1712 4317
1713 93
1713 23
1713 5329
1714 7061
1716 9554
1717 5198
1719 5130
1719 9821
1720 2656
1720 3425
1720 9067
1722 4971
1722 8848
1724 2427
1724 7109
1724 9758
1724 323
1729 2037
1729 1907
1730 3986
1732 6097
1732 3463
1735 5973
1736 3296
1737 3142
1737 4700
1737 7808
1738 2956
1738 4033
1739 4773
1739 5786
1739 5815
1740 8209
1740 2594
1740 3354
1740 4176
1741 6590
1741 8035
1742 6909
1743 2108
1743 4814
1743 7361
1744 3645
1744 6997
1745 1927
1745 4750
1745 5179
1746 3551
1748 5718
1750 7195
1751 2536
1752 2439
1752 7795
1753 5963
1754 2425
1754 3277
1754 3939
1758 876
1758 2123
1759 3271
1759 6642
1760 828
1760 2288
1760 4675
1760 9663
1761 4829
1762 2049
1764 127
1764 3042
1764 465
1764 1345
1764 5680
1765 2548
1768 6889
1768 8357
1770 6620
1771 1628
1771 6696
1771 7604
1771 7822
1771 9433
1772 1036
1772 8579
1773 5230
1775 7120
1776 3287
1776 6848
1777 1861
1777 199
1777 2541
1778 65
1778 5690
1779 4380
1780 7168
1780 105
1782 2712
1782 2875
1782 4577
1782 7548
1785 8849
1786 8581
1787 2116
1787 2340
1788 2835
1789 2690
1790 4010
1790 5068
1790 7598
1791 5602
1792 2088
1792 2740
1792 4202
1792 7578
1792 9635
1793 4501
1793 7162
1794 3457
1794 9891
1795 5427
1796 2649
1798 2816
1799 2170
1799 7314
1801 2344
1801 3592
1801 7021
1801 8354
1802 6968
1802 7865
1804 7816
1805 1901
1806 7862
1806 8822
1807 2297
1808 3955
1808 5541
1812 8963
1813 412
1813 1020
1813 2962
1814 3513
1815 3687
1815 4646
1815 5526
1815 7404
1815 8659
1816 8592
1816 5170
1816 1768
1816 9349
1818 2821
1820 4676
1821 5606
1821 741
1821 1492
1822 3579
1823 4633
1826 2338
1826 5902
1828 5457
1828 5886
1830 2907
1831 2989
1832 3753
1832 4816
1834 2311
1835 2973
1835 7562
1836 3451
1836 3708
1836 6855
1836 7831
1837 2280
1839 1970
1840 6752
1841 2227
1842 2374
1842 3075
1842 4524
1844 3265
1845 2970
1845 176
1845 4146
1846 2972
1846 3813
1847 2610
1847 4255
1848 5801
1848 7201
1849 3712
1850 3482
1850 4130
1850 5493
1850 9217
1852 3055
1852 3508
1853 3070
1854 1593
1854 2495
1854 2668
1854 6727
1855 9560
1856 1305
1856 2838
1856 4179
1858 9345
1859 7949
1859 4003
1859 5006
1861 473
1861 853
1862 2028
1862 2066
1862 9045
1862 9215
1862 9654
1864 2317
1865 6109
1866 2782
1866 5108
1867 619
1867 2304
1867 2403
1867 4541
1869 3352
1869 5490
1870 7266
1870 7740
1871 6965
1872 2269
1872 6920
1874 4413
1876 905
1876 2397
1876 7001
1878 8772
1879 2018
1880 2743
1880 4282
1882 2369
1882 7000
1882 7219
1883 6230
1886 3879
1886 6750
1886 7137
1887 8982
1887 7703
1887 1898
1887 3045
1887 5847
1890 6004
1892 2537
1894 4366
1896 8493
1896 2830
1898 8711
1900 8773
1900 9397
1902 4428
1903 1861
1904 343
1904 7706
1906 3359
1906 4468
1907 6464
1907 6749
1909 6359
1910 9347
1910 9976
1911 1260
1912 8634
1913 4866
1914 2801
1915 6002
1915 3854
1916 2446
1917 7252
1917 9341
1919 3871
1919 5195
1919 9890
1921 7453
1923 7664
1924 4485
1925 3831
1925 6504
1925 9718
1925 9802
1926 2554
1928 8986
1928 9594
1932 6364
1933 300
1933 7737
1935 4972
1935 1519
1936 7427
1937 9740
1938 7955
1940 3418
1941 8458
1941 2412
1942 6368
1943 2757
1944 642
1944 3504
1944 3742
1944 4333
1945 3038
1946 3861
1946 5726
1946 9649
1947 2270
1948 1253
1950 8186
1952 2138
1953 2466
1953 4269
1955 4827
1955 9710
1956 2409
1957 121
1957 1013
1958 2130
1958 4745
1958 8967
1960 3412
1963 3794
1963 7040
1965 2998
1967 2863
1967 5675
1967 7934
1967 9456
1968 3666
1968 8857
1971 4706
1972 2457
1972 3222
1972 4218
1973 2287
1974 4486
1974 8007
1974 9590
1977 7898
1978 2226
1978 3927
1979 2585
1979 3124
1979 8234
1979 9804
1980 1388
1980 1866
1981 4049
1981 4879
1983 5967
1983 7553
1983 1218
1985 8889
1985 141
1985 2627
1985 4177
1985 4969
1987 4121
1990 2450
1991 4853
1992 7025
1992 9730
1994 8894
1995 3873
1995 4411
1996 3284
1996 3991
1996 4248
1997 4609
1998 9004
1999 5491
1999 8869
2000 3714
2001 3594
2001 8622
2002 4390
2003 6629
2004 7546
2006 9468
2008 2025
2008 3912
2008 3937
2008 7688
2010 9038
2011 4932
2012 8586
2012 591
2012 1990
2013 1800
2013 8692
2014 2438
2015 2746
2015 3363
2015 4916
2015 6147
2016 3882
2016 8008
2016 9310
2017 3025
2017 3233
2018 2204
2018 5083
2018 6301
2018 9204
2020 5467
2020 5662
2021 3039
2022 4185
2023 4799
2027 9681
2028 2195
2028 3664
2028 6722
2030 2046
2032 8267
2032 9008
2033 3114
2033 3566
2033 7050
2035 5872
2036 9194
2036 7283
2036 6031
2036 6776
2036 7368
2037 7798
2037 9856
2038 5098
2040 2155
2041 3143
2045 9780
2046 7083
2047 2878
2048 4790
2048 7114
2048 8980
2049 2109
2049 3669
2049 4618
2050 8210
2052 3524
2053 2436
2053 5658
2054 8202
2056 2941
2057 9708
2057 4547
2057 7894
2057 3977
2057 5091
2058 8412
2059 9372
2059 483
2060 5647
2060 6602
2063 5589
2064 6212
2064 8600
2065 79
2065 3898
2065 220
2065 719
2065 8273
2066 2749
2067 2207
2067 3085
2067 8041
2068 6725
2071 6345
2072 6516
2073 2333
2073 1042
2073 5579
2073 6267
2074 2105
2078 2213
2078 2382
2078 5983
2078 8026
2079 3231
2080 5203
2080 6186
2081 4614
2082 2678
2082 5240
2083 8745
2083 580
2083 5739
2084 5996
2085 3349
2086 5645
2086 8153
2087 4068
2089 9299
2090 2634
2090 3117
2091 2443
2092 3615
2092 5921
2093 254
2093 1921
2094 2139
2095 5345
2098 1075
2099 7919
2100 6896
2100 4505
2101 7840
2102 2384
2102 5468
2102 9770
2103 265
2104 4834
2104 5652
2104 7301
2105 6701
2105 8406
2106 4652
2106 5307
2107 3665
2107 4678
2109 2872
2110 3715
2115 3426
2115 9598
2116 2715
2117 3862
2118 7953
2118 5114
2118 5682
2118 1654
2118 2944
2120 4240
2120 4855
2120 7100
2121 7215
2121 8313
2122 2641
2123 5310
2123 8366
2124 1867
2124 2948
2124 2967
2124 4718
2124 5788
2124 8776
2125 6714
2126 1142
2126 1474
2126 1064
2126 5227
2128 7420
2128 9748
2134 3010
2136 4186
2136 5905
2137 7023
2137 8100
2138 4733
2139 3262
2140 3780
2143 2901
2143 3145
2143 4285
2143 6783
2144 7366
2144 8689
2147 2776
2147 2257
2147 5582
2147 6834
2147 7905
2148 2617
2148 8113
2149 7702
2150 3386
2150 3799
2150 5260
2151 3358
2151 8294
2151 9660
2152 5074
2152 426
2152 560
2152 1421
2152 9616
2154 5906
2154 5918
2154 6851
2154 9931
2155 4923
2155 5613
2156 5439
2156 9104
2157 2654
2157 4296
2158 4776
2158 9642
2159 3369
2159 7441
2160 6907
2161 2165
2161 5476
2162 4361
2162 5552
2163 9633
2163 4425
2165 2276
2165 4142
2165 5774
2166 2669
2166 2996
2167 2950
2170 2621
2171 5333
2171 9271
2172 9905
2172 1973
2172 7519
2174 44
2174 58
2174 6291
2174 2884
2174 3543
2174 8816
2175 5583
2175 5666
2175 6259
2176 6196
2177 4151
2178 9169
2178 304
2178 1826
2179 1031
2179 270
2179 584
2179 2582
2179 4221
2179 5694
2180 2222
2181 8090
2182 2322
2182 6636
2183 5211
2186 4928
2186 6213
2188 6285
2190 1472
2190 5796
2191 4762
2194 3219
2194 5850
2194 9156
2195 4252
2195 4456
2195 5084
2197 3573
2197 4823
2199 3005
2199 831
2199 1322
2202 7927
2203 8546
2205 7570
2206 3115
2207 2674
2208 8917
2210 2915
2210 8960
2212 4729
2214 3586
2215 4189
2215 4661
2216 4494
2217 2511
2217 7520
2217 9363
2219 4160
2219 6258
2219 7185
2221 6678
2222 2700
2222 2892
2223 2337
2223 5141
2223 7178
2224 9278
2224 3119
2224 4364
2224 6152
2225 4533
2225 9606
2226 2572
2226 6482
2227 5734
2227 9864
2228 1769
2228 1352
2229 2532
2230 2510
2233 3126
2233 6537
2234 4374
2234 7928
2234 8173
2236 4950
2236 3377
2236 8487
2238 2393
2238 6884
2238 7297
2238 8207
2239 1286
2240 947
2240 9056
2240 8111
2240 1112
2240 2933
2241 8194
2243 5135
2243 8105
2245 8104
2245 6396
2246 4205
2246 6595
2246 6978
2247 8333
2247 3069
2248 3331
2249 6618
2250 2527
2250 3414
2250 8447
2250 9132
2252 2809
2253 7911
2254 6627
2255 3763
2255 4538
2256 4180
2257 2341
2257 3641
2257 8423
2260 6240
2261 7913
2262 2529
2263 2932
2263 5937
2263 9962
2264 797
2264 3104
2264 8500
2266 6203
2268 5401
2269 4118
2270 4926
2270 6922
2271 6707
2271 9625
2272 3558
2273 7614
2275 2415
2275 6866
2277 6702
2277 7730
2279 3125
2281 3121
2281 5246
2283 4809
2283 7090
2285 2428
2285 2431
2287 4619
2287 9302
2287 9769
2288 4517
2289 8638
2289 154
2291 4888
2291 6456
2292 3314
2292 9911
2292 9917
2294 2899
2296 993
2296 3132
2296 5993
2296 8891
2299 4112
2300 3248
2300 8482
2303 4076
2303 9987
2304 7324
2304 616
2305 3622
2306 3137
2308 3729
2308 8740
2310 3793
2310 5349
2311 5741
2311 6649
2313 7283
2314 2407
2315 9999
2319 3667
2319 5268
2321 2766
2323 7851
2324 2699
2324 5226
2324 7765
2325 9840
2325 5463
2325 317
2326 8149
2328 4066
2328 9984
2330 8636
2331 9949
2332 2679
2332 7820
2334 1002
2334 6913
2334 4090
2335 3775
2335 6765
2336 5266
2338 9741
2342 3079
2342 8467
2342 9752
2343 2462
2344 2589
2344 6322
2344 8243
2345 2353
2345 6666
2347 5217
2348 9581
2349 8121
2350 2444
2350 4289
2351 9043
2351 9640
2352 6888
2354 9850
2355 7433
2355 43
2355 482
2355 4611
2356 4036
2356 5424
2356 8433
2357 2103
2357 4310
2357 5444
2358 6441
2358 7125
2361 3967
2362 5175
2364 7144
2365 5551
2366 6550
2367 2544
2369 9992
2371 2680
2371 8664
2373 6477
2374 9035
2374 9191
2375 8421
2376 3527
2376 6144
2376 7415
2377 7461
2378 2502
2378 9172
2379 6945
2380 4572
2380 5749
2381 3285
2382 6161
2383 3146
2384 3168
2384 8335
2385 4626
2386 2840
2386 4343
2390 7257
2390 7538
2391 3197
2391 4355
2391 5984
2391 7572
2392 4265
2392 5926
2393 8531
2395 3866
2395 5005
2395 7965
2397 7082
2398 4721
2398 5730
2399 4982
2401 3023
2401 4621
2401 6136
2401 6535
2402 5761
2403 4222
2403 9879
2404 309
2404 896
2404 3081
2404 5641
2405 3109
2406 3199
2406 3428
2406 5604
2407 3744
2408 9830
2409 6605
2410 3963
2411 2264
2411 3000
2411 4647
2411 9722
2412 2607
2413 6290
2413 8660
2414 3300
2415 8199
2415 9260
2416 4639
2418 7663
2419 7455
2420 5544
2420 7080
2420 264
2420 985
2420 1271
2420 4622
2421 8116
2423 4651
2423 9833
2424 4509
2426 5674
2427 1425
2427 1942
2427 4523
2429 2848
2430 2911
2430 5432
2430 5969
2430 8270
2431 4328
2436 3919
2438 4957
2441 287
2441 1732
2441 892
2441 1810
2441 2748
2441 9034
2445 4227
2445 7351
2445 9134
2447 3136
2448 3165
2448 6899
2448 7372
2450 6418
2452 5055
2452 8666
2453 2965
2453 8043
2454 485
2454 2686
2455 3606
2455 514
2456 6938
2456 7987
2460 3774
2460 5136
2461 3411
2463 9200
2465 6263
2467 4424
2467 5856
2471 357
2471 5990
2471 1081
2471 5339
2471 9530
2473 7787
2475 1615
2475 442
2475 4402
2475 5164
2477 9276
2477 4137
2477 8323
2478 5951
2479 507
2479 1599
2479 4223
2480 8408
2481 9005
2481 945
2481 969
2481 3029
2482 1595
2482 9057
2485 1145
2485 4434
2486 7270
2488 5025
2491 7685
2493 2774
2493 6153
2495 4743
2497 4874
2498 3028
2498 1225
2498 7741
2499 4693
2502 8563
2505 5553
2506 9003
2508 3966
2509 2579
2509 3681
2509 675
2509 1705
2510 2940
2510 7726
2511 3169
2512 5403
2514 2934
2514 4942
2515 6318
2517 9904
2519 3640
2522 7356
2523 2954
2523 4363
2523 8919
2525 9500
2527 4754
2528 3027
2528 7933
2529 3905
2530 3447
2530 3679
2530 7861
2531 2546
2531 3449
2532 9188
2534 280
2534 364
2534 2857
2534 4128
2536 2562
2536 3158
2536 4899
2539 9169
2539 337
2539 3850
2540 238
2540 392
2541 9210
2543 2778
2543 3034
2546 5204
2546 8185
2546 8629
2547 4445
2547 6188
2549 5592
2551 5642
2551 6347
2552 8286
2552 939
2552 6526
2552 8228
2555 2568
2555 3915
2556 3101
2556 5766
2556 8958
2557 5354
2557 182
2557 521
2557 1613
2557 2234
2559 3692
2559 4481
2564 3934
2565 6324
2567 5070
2567 3066
2567 9229
2567 331
2567 3809
2567 9110
2570 5735
2570 6579
2572 5789
2573 3445
2573 5710
2574 3531
2577 8286
2580 6969
2580 8713
2581 2980
2584 7597
2585 6885
2585 4082
2587 5910
2588 5615
2588 7524
2591 2854
2592 7046
2594 8397
2596 2615
2596 4936
2597 9009
2599 5986
2599 7231
2599 8783
2600 5374
2602 1101
2602 2282
2602 3767
2602 4493
2603 5637
2606 2810
2607 3895
2608 9254
2610 7859
2610 1246
2610 2339
2611 5997
2612 4937
2613 7695
2614 3661
2614 6843
2617 6045
2617 9023
2619 6105
2619 9267
2620 3078
2621 4585
2623 6328
2625 3727
2627 7971
2631 9536
2633 4075
2633 7707
2634 3175
2634 7877
2634 9182
2635 3073
2635 6640
2636 68
2636 8460
2636 9346
2637 1292
2637 4334
2637 4727
2637 8651
2637 552
2638 2817
2639 522
2640 2689
2640 4198
2641 8466
2642 9858
2643 80
2643 4869
2644 3173
2645 7781
2645 6348
2645 8758
2645 1117
2645 5820
2645 4789
2645 5000
2645 7573
2646 5855
2647 3935
2647 8650
2649 3003
2649 4851
2649 7762
2650 4410
2653 4111
2653 5484
2653 8588
2655 6459
2656 9436
2658 3273
2659 6788
2660 6422
2660 8255
2661 1574
2663 3387
2664 8890
2666 7800
2666 8792
2671 4251
2671 6987
2671 8128
2671 8787
2672 908
2672 3549
2672 7841
2672 9232
2673 2744
2674 3196
2674 3764
2674 7321
2674 9709
2675 4359
2675 1385
2676 2811
2676 7152
2676 7377
2680 3452
2681 1928
2683 6689
2683 9934
2684 6683
2684 7729
2686 2784
2690 4956
2690 5117
2690 5171
2690 5934
2693 3899
2693 5440
2693 6215
2693 7233
2694 4553
2697 3328
2698 5646
2698 5920
2701 2979
2701 4929
2703 3068
2706 3096
2707 6391
2710 8249
2711 6342
2712 2955
2712 2990
2715 3695
2716 3255
2716 3538
2716 9712
2717 4849
2718 7207
2719 1744
2719 2806
2719 30
2719 275
2719 6414
2719 6416
2721 8744
2722 375
2722 5618
2722 6599
2724 5610
2724 7262
2726 9118
2727 3724
2727 4512
2727 4911
2728 2896
2728 3166
2729 2756
2731 6825
2736 8817
2736 2800
2737 5106
2737 8571
2739 19
2739 3599
2740 7720
2744 5668
2744 8649
2748 5517
2749 8747
2749 9825
2751 8316
2752 7234
2752 186
2752 1230
2752 1282
2752 3036
2753 8392
2754 6488
2754 7172
2757 6224
2758 5069
2758 5308
2758 9478
2760 6033
2760 6151
2760 7113
2761 2815
2761 8155
2764 7292
2765 4482
2765 4755
2765 4893
2765 8916
2766 3105
2766 5745
2767 3928
2767 6327
2767 7143
2770 7322
2771 6106
2772 8330
2773 4584
2773 6967
2774 5945
2775 1515
2775 4478
2776 5624
2777 7576
2778 3768
2782 8946
2785 3698
2786 8674
2787 6211
2787 9527
2788 758
2788 283
2788 746
2788 968
2788 9042
2788 9353
2789 1758
2789 4875
2789 726
2789 5972
2790 3224
2790 5711
2790 8437
2791 2951
2791 557
2791 8530
2792 6028
2792 6966
2794 6764
2796 5066
2796 9256
2797 2922
2797 3522
2798 6571
2798 7659
2798 9340
2801 7094
2802 9
2802 827
2802 2414
2802 5328
2804 6015
2805 4543
2805 7658
2806 3741
2806 7897
2806 5736
2806 185
2806 2258
2807 4004
2807 5874
2807 6055
2807 8343
2807 8930
2809 6780
2809 6983
2811 4889
2811 5116
2811 9875
2812 2709
2812 3696
2812 3747
2812 4084
2812 9526
2813 8494
2815 3392
2815 6492
2816 5112
2816 5173
2818 4948
2818 179
2818 2487
2819 4511
2819 4544
2822 3394
2823 3046
2823 7253
2824 5923
2827 3593
2828 4852
2828 5153
2828 8598
2828 9091
2829 7609
2830 3728
2830 6436
2831 9282
2832 9317
2832 198
2833 8651
2833 1277
2833 8782
2834 6430
2835 6124
2836 4006
2837 4432
2838 2841
2838 9368
2841 9127
2843 6513
2847 5473
2847 7935
2849 163
2849 2271
2849 9354
2850 8462
2851 3855
2851 4046
2851 7542
2851 7983
2852 5522
2854 6486
2856 5309
2856 9288
2858 7444
2858 6664
2859 8899
2859 962
2859 1374
2861 4197
2862 6865
2863 3589
2864 3030
2865 5090
2865 8382
2865 9641
2866 7035
2866 6304
2866 7757
2866 7793
2866 8120
2868 4290
2869 4320
2870 6038
2870 6238
2872 4409
2873 3342
2873 5723
2873 5743
2873 6189
2873 7417
2874 5327
2874 5359
2875 8097
2877 9277
2879 3898
2879 727
2880 9676
2882 4795
2883 6628
2883 9900
2886 6
2886 8990
2886 1824
2887 3583
2887 6075
2889 3512
2889 6789
2890 3987
2891 3347
2892 5697
2893 3383
2896 5504
2896 8192
2898 3108
2899 5480
2900 5400
2900 3811
2900 5755
2901 7761
2902 3288
2903 7193
2904 8297
2907 3185
2908 8914
2909 3128
2909 3936
2913 9386
2913 8
2913 3486
2915 4465
2915 4559
2916 6352
2917 3778
2917 8826
2919 5974
2920 3202
2921 8219
2921 207
2921 912
2921 2584
2921 7568
2923 8954
2923 383
2923 7599
2924 7184
2925 75
2925 4350
2925 6009
2927 3507
2928 1991
2930 6050
2931 7530
2933 5311
2933 6881
2933 8513
2934 5957
2934 8025
2935 3155
2935 4091
2936 2503
2936 7518
2936 7813
2937 5525
2938 638
2938 8752
2939 5898
2939 7008
2940 7575
2941 4089
2941 5699
2942 3802
2943 7890
2944 3992
2944 9721
2945 5021
2946 5729
2947 8119
2947 74
2947 838
2947 2616
2947 4767
2948 8420
2948 6686
2948 7915
2949 7916
2951 9018
2953 33
2953 73
2953 1110
2953 8377
2954 6949
2955 3474
2955 3751
2955 5962
2955 7583
2955 8325
2956 7698
2956 8987
2957 5590
2957 1067
2957 4172
2958 6863
2959 6782
2959 8132
2960 9988
2961 5827
2961 6911
2962 3494
2966 4273
2970 8272
2971 8457
2971 159
2971 2465
2974 5509
2974 7885
2975 3808
2975 6059
2980 6071
2981 1947
2981 2825
2982 1071
2983 3208
2985 8346
2988 78
2988 6210
2988 7440
2989 3938
2989 4846
2990 3016
2990 3215
2992 9005
2992 990
2992 1506
2993 3017
2995 5223
2997 4800
2997 7300
2998 9696
2998 3444
2998 4042
3005 847
3005 1059
3009 3624
3009 9498
3011 5540
3012 9146
3012 3933
3012 1204
3015 7155
3017 9834
3018 4927
3019 3649
3019 4954
3019 5252
3019 5928
3019 6985
3020 3761
3020 6901
3020 7073
3021 535
3021 7576
3022 3278
3023 5104
3023 7019
3024 1879
3024 320
3024 2943
3025 3572
3025 8657
3026 5183
3027 9429
3027 9612
3028 6996
3029 7807
3032 5946
3034 3529
3035 6278
3035 8707
3035 9338
3039 3505
3039 7680
3041 7939
3041 1451
3042 2665
3042 5125
3044 2982
3044 335
3045 3762
3045 5237
3047 3465
3048 4422
3048 7037
3049 4331
3050 7033
3052 7552
3052 7295
3053 9810
3054 5451
3055 5964
3056 3127
3056 5093
3057 3321
3058 3725
3058 6946
3058 7364
3059 1303
3059 1572
3059 8381
3060 1160
3060 3876
3060 1559
3060 2405
3060 2755
3060 3546
3061 8171
3061 2134
3062 9175
3063 6824
3064 3393
3065 6959
3066 4793
3066 3156
3071 5412
3074 2253
3074 3576
3076 8031
3076 8056
3078 7341
3079 9467
3080 7897
3080 2905
3081 7640
3081 8874
3082 3627
3082 6041
3082 7974
3083 5028
3084 9903
3085 9421
3087 5672
3089 7227
3089 7973
3090 3184
3090 7691
3093 9234
3093 2395
3093 2937
3095 4139
3098 3312
3098 3404
3099 5423
3099 9659
3100 3389
3100 6079
3102 1868
3102 2107
3102 2272
3103 7689
3104 3260
3104 5655
3104 9297
3104 9488
3106 6102
3107 7425
3108 6481
3108 7925
3109 7220
3111 3123
3111 9074
3113 5853
3115 3182
3115 3918
3116 6122
3116 9966
3117 5450
3119 4973
3119 66
3120 6593
3120 346
3120 3587
3121 4491
3123 6553
3125 7129
3125 7474
3129 5929
3130 6201
3130 8534
3131 7034
3131 8319
3133 8305
3134 8001
3137 6120
3138 6549
3138 7435
3140 6282
3140 8785
3141 385
3142 3600
3142 6805
3144 5703
3144 327
3144 8610
3147 4239
3147 702
3147 1433
3148 5400
3148 6732
3148 2775
3148 6426
3148 3646
3149 852
3152 4756
3152 6615
3153 6807
3153 7393
3154 8507
3154 8884
3155 3949
3155 9867
3156 7843
3160 5885
3161 6891
3161 8763
3162 4546
3162 6529
3162 9014
3167 7591
3167 9516
3167 1774
3170 3243
3170 7281
3172 7478
3172 6467
3172 2095
3172 2959
3173 6130
3174 7005
3174 1571
3174 2960
3174 4164
3174 6234
3175 3397
3175 3458
3175 3643
3179 1393
3179 7035
3179 129
3179 1603
3179 3382
3180 8168
3180 8818
3181 3814
3183 3837
3183 630
3185 5029
3186 9139
3187 582
3187 901
3189 6585
3190 5887
3191 3042
3191 2750
3191 4315
3193 7642
3194 2963
3194 3891
3195 3611
3195 8101
3197 3878
3197 6438
3197 6775
3198 4521
3198 1608
3198 2786
3199 6663
3200 9147
3201 3476
3201 3493
3201 5248
3203 4307
3204 6202
3205 5044
3205 7146
3206 3013
3206 4419
3207 8280
3207 9400
3208 3466
3209 6444
3210 6940
3210 1331
3210 3282
3212 6011
3213 1261
3214 4547
3214 4064
3214 5244
3216 9071
3216 9534
3220 3760
3220 6458
3220 5704
3220 972
3220 4060
3220 6485
3221 4665
3221 4736
3222 4526
3223 3477
3223 6409
3224 7299
3224 7485
3225 1634
3225 1440
3227 5877
3227 1743
3227 6659
3228 3475
3230 4029
3230 1086
3230 9051
3233 5017
3234 6625
3236 6415
3236 2851
3236 4329
3237 3612
3239 3544
3239 6850
3240 271
3240 285
3242 5033
3242 7975
3245 6956
3245 2364
3245 120
3245 2308
3246 9734
3248 1525
3249 3671
3250 4194
3250 6906
3253 4211
3256 7383
3256 8618
3257 1356
3257 451
3257 3500
3257 4796
3258 8974
3258 9877
3260 3815
3263 2483
3263 1910
3263 2259
3263 9684
3264 7637
3264 8068
3267 3552
3267 3607
3267 5633
3269 6095
3270 5169
3270 8656
3271 5773
3274 3441
3274 4769
3274 5627
3276 2557
3276 5400
3276 5194
3276 1645
3276 3783
3277 8324
3279 6519
3281 6403
3283 5607
3284 5638
3284 6873
3284 9395
3284 9480
3287 4962
3289 1858
3289 3701
3291 5126
3291 8455
3292 5225
3297 4520
3298 5806
3299 4169
3299 6024
3300 5063
3301 3308
3302 3340
3303 4070
3303 3133
3303 8624
3303 9379
3304 9786
3304 3102
3304 706
3304 3606
3304 8385
3306 6635
3308 8727
3308 9225
3309 9779
3309 3719
3309 201
3309 231
3309 1380
3310 7406
3312 4751
3312 1128
3314 8552
3315 3786
3315 6608
3316 9597
3316 9657
3317 1171
3317 1244
3317 3423
3317 7649
3318 4496
3321 9690
3324 3874
3324 4368
3324 6233
3326 3910
3327 4605
3327 9093
3328 5085
3329 8053
3329 5922
3329 9440
3330 628
3330 1983
3330 6019
3330 5430
3330 872
3332 6361
3336 9482
3339 4206
3340 6413
3341 5521
3342 9084
3343 1098
3343 3028
3343 3307
3343 5234
3347 6746
3349 4019
3350 9886
3350 262
3350 315
3350 6192
3350 6479
3351 9827
3355 5496
3356 8541
3359 7778
3360 668
3360 85
3360 1676
3360 1734
3360 3584
3360 5565
3363 3631
3363 4405
3364 3468
3364 9944
3365 7309
3368 5131
3371 5362
3372 3542
3374 8023
3374 1097
3374 1132
3375 4093
3375 9930
3379 8150
3379 611
3379 1699
3379 5832
3380 4096
3381 6993
3382 8431
3383 4332
3385 4994
3386 4695
3387 6771
3387 6897
3388 452
3388 1375
3389 5454
3389 6936
3391 6607
3391 217
3393 5145
3393 5478
3395 5742
3396 7038
3397 3402
3397 7652
3403 5569
3403 7623
3407 8753
3407 9137
3410 7385
3411 8504
3414 6052
3416 7119
3416 7910
3417 6247
3420 5047
3423 9086
3424 9842
3427 6991
3428 6283
3428 8096
3431 4278
3432 1575
3432 2576
3432 8606
3432 9412
3435 4786
3437 3637
3438 6778
3438 8212
3439 6132
3442 1108
3442 4250
3442 791
3444 5677
3445 9970
3447 5222
3448 9229
3449 3959
3450 3683
3453 3737
3453 5348
3453 7194
3456 1967
3459 5139
3460 4420
3460 5413
3460 7462
3460 7525
3461 7092
3461 8681
3463 3663
3463 4691
3465 8012
3467 6254
3467 7333
3467 7339
3468 7481
3470 3693
3471 4406
3471 8292
3472 5381
3472 7873
3473 5980
3473 291
3473 278
3473 423
3473 6174
3473 9136
3474 7588
3475 3911
3475 5022
3477 4051
3478 2540
3478 4571
3478 7805
3480 4625
3480 5628
3480 9582
3481 3844
3481 4995
3481 8446
3482 5881
3482 8995
3484 4766
3485 4487
3485 7556
3487 4440
3487 5894
3489 6815
3489 9223
3491 8736
3492 9608
3494 4001
3494 4080
3494 5866
3497 238
3498 6913
3498 255
3498 352
3498 914
3498 3455
3498 8907
3499 9624
3499 792
3499 7127
3500 4951
3500 5826
3500 7381
3501 5817
3501 1517
3501 3980
3501 9222
3501 9231
3501 9768
3502 3510
3502 5756
3503 8355
3503 1586
3503 6381
3504 8193
3505 5598
3506 5067
3509 5431
3509 8612
3510 7920
3510 8436
3511 7448
3512 3561
3515 7686
3515 3750
3515 4527
3515 9195
3516 5925
3518 7574
3520 1477
3520 4914
3521 5558
3522 3602
3523 619
3523 1853
3523 4760
3525 3636
3525 5670
3525 6710
3526 5736
3526 517
3526 4338
3526 8819
3527 7367
3530 6575
3532 5377
3533 4171
3534 5229
3534 6035
3535 6334
3535 9502
3536 8886
3537 9339
3538 4674
3539 5365
3539 8252
3540 9098
3542 3978
3544 438
3544 481
3544 2004
3544 3720
3544 4506
3544 8864
3545 6755
3547 4262
3547 8988
3548 3684
3548 7015
3549 6826
3550 6794
3552 6384
3552 7704
3554 4163
3554 9031
3555 4514
3555 7866
3556 379
3556 311
3556 3113
3556 3178
3556 3471
3556 3930
3556 4187
3557 8214
3559 302
3559 1250
3559 1321
3559 4813
3559 7013
3560 3849
3560 4418
3560 5295
3560 7132
3563 6370
3563 7922
3567 3685
3567 1038
3568 4414
3568 6076
3569 9227
3570 5754
3571 4008
3571 8348
3574 8098
3578 5818
3585 6179
3586 7416
3587 6037
3588 3632
3588 4433
3588 4744
3588 7095
3589 7349
3589 9025
3590 4393
3590 4960
3591 9099
3592 9623
3594 3432
3594 9629
3594 8532
3594 9578
3595 4620
3596 9240
3598 6653
3602 7004
3602 8463
3603 4059
3603 4246
3604 4508
3604 6154
3605 5947
3605 244
3606 5241
3606 837
3606 2628
3608 4555
3610 2166
3610 5398
3611 4629
3612 5157
3613 7097
3614 2224
3614 6021
3614 4147
3615 5253
3616 5347
3617 5399
3617 7340
3617 8203
3621 6440
3621 8696
3623 833
3623 1168
3624 4898
3624 5149
3624 8644
3626 7437
3630 8238
3631 6048
3632 7418
3633 9276
3633 851
3634 7939
3634 1808
3634 2581
3639 4832
3642 4917
3642 9706
3642 3172
3642 1605
3642 5048
3644 9980
3645 8577
3646 6287
3647 7514
3651 6275
3654 3864
3657 7226
3659 3005
3660 8672
3663 3941
3663 5702
3663 9203
3664 5296
3666 3807
3666 4630
3666 7043
3666 9716
3668 4210
3668 4261
3669 7755
3670 3201
3670 5954
3673 6616
3674 2998
3674 2264
3674 1496
3674 4677
3675 9226
3676 4463
3676 5549
3678 4081
3678 9789
3681 8880
3681 3732
3682 9793
3685 7995
3685 9995
3686 7222
3686 9792
3686 8685
3687 5875
3689 9378
3689 92
3689 2284
3689 4649
3690 6709
3692 1798
3692 2278
3692 4011
3695 5146
3696 2846
3696 4632
3698 3765
3700 9557
3701 4381
3702 4715
3702 8968
3706 5075
3706 5619
3707 9248
3709 8422
3709 9960
3710 7484
3711 9020
3712 5995
3717 1242
3717 2110
3718 2131
3719 6992
3719 2788
3719 636
3719 1812
3719 5630
3719 6220
3719 6294
3721 8559
3722 8770
3722 6634
3723 2021
3723 2779
3723 8815
3726 9512
3727 6842
3727 8935
3728 5003
3730 7684
3731 5588
3731 9855
3732 4452
3732 9604
3733 4545
3735 6046
3740 6274
3741 571
3742 7336
3743 5443
3743 6123
3744 3901
3744 7397
3745 486
3745 8982
3745 6630
3745 6932
3745 6829
3746 6260
3747 3810
3747 4301
3748 8064
3748 8488
3749 1208
3749 1403
3749 1644
3750 6841
3755 7156
3758 3946
3759 4294
3759 5185
3760 312
3760 4595
3764 9303
3765 4641
3766 7443
3768 6494
3769 3842
3770 9511
3771 5858
3773 3923
3773 7391
3776 3820
3778 4302
3779 4055
3779 4589
3780 8150
3780 2565
3780 4141
3781 3909
3783 9398
3785 3904
3787 7549
3790 5687
3790 7589
3793 9996
3794 9835
3795 5792
3797 4570
3798 4138
3800 7200
3801 6680
3802 5394
3803 3925
3804 6523
3804 1932
3806 7126
3810 4498
3811 2852
3811 3399
3812 9318
3812 150
3812 8250
3813 5113
3815 5701
3816 9272
3816 8808
3816 235
3816 1213
3816 5873
3816 7826
3817 4236
3817 4382
3817 9452
3818 4935
3818 8758
3818 980
3818 4587
3818 7727
3818 5988
3819 4952
3819 5334
3819 6947
3821 6568
3821 8677
3823 9369
3827 4182
3829 395
3829 2573
3829 5770
3831 4490
3831 4781
3832 181
3832 3975
3833 5420
3834 5935
3834 6728
3836 5186
3837 9870
3837 3295
3837 6279
3837 9965
3838 1821
3840 5332
3840 5578
3841 4681
3843 4488
3848 565
3848 2891
3848 2910
3848 6763
3848 9686
3849 4830
3851 4723
3852 4640
3854 401
3854 5475
3854 6562
3854 3845
3854 6010
3855 4573
3856 3052
3856 1779
3860 5392
3862 3971
3863 4173
3863 4226
3863 5015
3863 6900
3865 4115
3865 2235
3865 9291
3867 4735
3867 7786
3868 9773
3869 4025
3870 8720
3871 4785
3872 5802
3872 9489
3873 6249
3874 7133
3875 6298
3875 7347
3876 205
3876 674
3876 2020
3876 6552
3876 8683
3876 9975
3877 6137
3878 9667
3880 8511
3881 6042
3881 6864
3884 9747
3886 8110
3887 8088
3889 4770
3889 5243
3890 4537
3890 1276
3890 1287
3891 8052
3893 5524
3895 4228
3895 4810
3895 9408
3898 4400
3898 3332
3898 8197
3900 6424
3904 5605
3906 2200
3907 8845
3908 8827
3911 6214
3913 5781
3914 5859
3916 4945
3918 8453
3920 5100
3920 5462
3921 9249
3922 5336
3923 4299
3924 8578
3925 8933
3927 6476
3930 6194
3931 7976
3933 6199
3933 5572
3933 4309
3935 4058
3935 8959
3936 4726
3937 8970
3939 5635
3939 7619
3940 5861
3941 5667
3942 6099
3944 4098
3945 5532
3945 5800
3945 9384
3946 4556
3946 8545
3947 5948
3947 9425
3948 2354
3948 4775
3951 6806
3955 3979
3956 5882
3957 2190
3957 8731
3957 6200
3959 6145
3959 7070
3960 4986
3960 6557
3960 7979
3962 7728
3962 2160
3966 4346
3966 4483
3968 9862
3969 6563
3970 6814
3973 5076
3974 4489
3974 5264
3974 7009
3977 7647
3978 5862
3980 5272
3980 5360
3981 6302
3981 832
3981 2214
3982 6025
3982 823
3982 2203
3982 3563
3982 4654
3983 2514
3985 9352
3986 7630
3988 7412
3988 3051
3988 3204
3988 3852
3988 9161
3989 5449
3989 6006
3993 4426
3996 7154
3996 4920
3997 4592
3998 8643
3999 5304
4000 1054
4003 7307
4003 353
4003 7501
4005 997
4005 2812
4005 9846
4007 6246
4007 7016
4007 9782
4009 6741
4011 9253
4012 4904
4013 5058
4013 7763
4013 8086
4014 6927
4014 7871
4015 4298
4016 5184
4016 5728
4018 7055
4018 3853
4020 620
4022 3595
4022 8117
4022 2721
4022 6695
4023 9251
4025 4746
4026 8475
4026 3516
4029 8587
4031 8979
4032 1795
4032 7690
4032 543
4032 4436
4033 5303
4033 6320
4035 6273
4038 5425
4038 6799
4039 6377
4039 6961
4040 2717
4040 3773
4040 5133
4040 9632
4043 8913
4044 5907
4044 6252
4046 9815
4047 5661
4047 9673
4048 6878
4048 8284
4049 9628
4050 6343
4050 7175
4051 5869
4051 6239
4054 581
4054 942
4054 8152
4055 4242
4057 9351
4058 9026
4059 4542
4059 4910
4061 2802
4062 8289
4063 6894
4063 7211
4064 8558
4064 4162
4064 5209
4064 6061
4064 6321
4065 4764
4065 5039
4066 7079
4066 9100
4067 8016
4068 6329
4068 4099
4068 9082
4069 263
4069 562
4069 1328
4070 1015
4070 3217
4070 6385
4071 9242
4071 595
4071 4607
4071 8115
4072 4662
4072 8451
4072 9185
4073 5916
4073 6651
4074 1072
4074 1819
4076 6272
4076 6439
4078 5684
4078 8450
4079 8522
4081 6337
4082 4243
4083 4232
4083 6268
4084 7285
4085 4348
4087 5455
4088 7330
4089 4342
4089 5998
4089 7480
4090 7526
4092 5053
4095 9218
4097 2995
4097 1148
4097 6473
4097 7594
4098 7948
4099 5206
4100 4836
4101 3956
4101 840
4101 1432
4102 8936
4103 6054
4105 9230
4107 5715
4108 2179
4108 9430
4108 6847
4108 3409
4108 4840
4108 7171
4108 8771
4110 4900
4110 7850
4111 7738
4114 5548
4114 5816
4115 601
4115 3054
4116 7931
4117 1459
4117 2924
4117 4664
4117 6296
4122 3161
4122 4014
4122 6818
4122 7442
4123 7577
4123 8276
4125 8232
4126 9551
4126 883
4126 3711
4127 9947
4131 6854
4131 6708
4133 6365
4134 737
4134 1146
4134 1278
4135 4145
4136 5469
4137 7994
4138 9492
4139 8998
4142 8632
4146 6217
4147 6184
4149 8767
4152 1685
4152 171
4152 2697
4152 3990
4154 5640
4154 8140
4154 8055
4154 131
4154 7543
4155 4856
4158 9286
4159 6870
4160 4690
4161 9592
4162 4765
4162 5187
4165 55
4165 6419
4165 9028
4167 8937
4168 5722
4168 31
4168 5566
4172 2178
4172 923
4172 3221
4174 7633
4174 3555
4176 4749
4177 8871
4179 5536
4180 6387
4180 6718
4180 8225
4181 5772
4181 8245
4184 6474
4188 9778
4189 4354
4189 6081
4190 8856
4191 4540
4191 4777
4192 4379
4192 8424
4193 4256
4193 6082
4195 5904
4195 6171
4195 7944
4196 7103
4196 7794
4196 1027
4196 6185
4198 5446
4198 7860
4199 5235
4199 5834
4199 7159
4200 5572
4200 59
4202 5190
4202 6973
4203 6887
4204 665
4204 5520
4205 8524
4207 9491
4207 111
4207 508
4208 5355
4208 9587
4209 396
4209 2834
4209 3159
4210 8461
4211 6410
4211 9257
4212 9788
4214 6790
4215 5679
4215 510
4215 9046
4216 136
4216 5994
4216 9001
4216 645
4216 408
4217 5177
4217 6698
4218 6892
4222 9205
4225 4670
4226 5181
4226 9964
4227 6060
4229 8482
4229 878
4229 8024
4230 2795
4230 5831
4230 6500
4231 5931
4233 5464
4233 5733
4234 5180
4234 5460
4235 8652
4235 4192
4236 5254
4236 5956
4236 8750
4237 6428
4238 6208
4239 8983
4241 7454
4241 535
4243 7855
4243 8566
4245 6058
4245 8893
4245 9772
4246 6573
4248 7668
4250 8425
4253 4961
4254 1343
4254 2206
4254 3857
4256 6335
4259 5911
4259 9374
4261 8246
4262 5037
4263 6748
4263 9300
4266 9696
4266 9803
4266 447
4267 5221
4267 7291
4268 490
4268 6988
4270 710
4270 5481
4274 5559
4274 3430
4275 5550
4275 6193
4277 5712
4280 8641
4280 531
4282 9077
4283 8608
4285 6308
4287 1304
4287 3603
4287 4940
4290 5258
4290 8565
4291 6051
4292 4397
4292 5639
4294 9371
4295 9183
4296 4567
4297 6495
4297 6738
4300 4892
4301 7365
4301 9348
4302 6111
4305 4446
4306 146
4306 4300
4306 8667
4313 418
4317 4891
4321 7563
4322 7068
4325 2540
4328 8469
4329 7026
4329 8978
4330 6820
4334 5341
4335 5152
4335 6469
4335 9325
4339 8129
4340 6753
4341 4815
4341 6303
4342 7833
4342 8621
4346 5249
4347 7052
4350 5023
4351 2002
4351 5087
4352 5390
4352 7683
4353 5215
4353 5890
4354 4513
4355 6040
4357 4636
4357 4593
4357 2666
4357 4731
4358 6098
4359 1298
4360 2775
4360 2927
4360 5089
4362 932
4362 1975
4366 7317
4366 7358
4367 5356
4371 8220
4371 9617
4374 8403
4375 4843
4375 6257
4378 889
4378 1122
4378 2229
4378 2348
4378 4518
4383 4623
4385 4657
4387 291
4387 3225
4387 3365
4387 5270
4388 5657
4389 6565
4389 5236
4389 1988
4389 2570
4391 3406
4392 4959
4393 8188
4395 5692
4396 6154
4396 7375
4396 604
4396 1390
4399 9123
4400 2985
4400 684
4400 1998
4402 5530
4406 7719
4408 6063
4408 8285
4409 6715
4409 9158
4414 9908
4415 7540
4415 6187
4415 776
4415 1480
4415 9749
4415 9839
4417 4287
4417 3077
4417 4203
4418 7801
4422 9079
4423 4480
4423 9039
4425 1773
4425 3924
4427 9683
4431 2417
4431 4925
4433 7593
4435 7657
4436 5004
4436 5576
4438 5191
4439 488
4439 3564
4439 6952
4440 6538
4440 8941
4440 9360
4441 7190
4442 3804
4442 613
4443 4907
4444 6597
4444 6183
4444 893
4444 4844
4444 5724
4445 8700
4447 5407
4447 134
4447 5013
4447 8014
4448 2895
4448 9620
4448 1232
4448 3893
4449 7984
4452 1754
4452 4845
4453 4984
4453 5775
4456 5200
4456 9883
4458 2296
4458 7023
4458 97
4458 6092
4458 7884
4459 6713
4460 8512
4461 6694
4461 9361
4462 7580
4463 8218
4464 824
4464 4085
4465 9892
4466 6096
4469 2092
4469 612
4470 5150
4470 7799
4471 3456
4471 2027
4471 6934
4471 9878
4472 8863
4472 7809
4472 260
4472 2603
4472 2805
4475 8964
4477 4579
4477 1088
4477 7776
4478 7020
4481 4535
4481 4748
4484 2643
4484 1245
4484 1254
4484 6542
4488 9610
4489 6726
4490 4757
4493 6397
4494 6393
4495 1634
4495 4600
4495 480
4495 957
4495 6925
4497 7076
4497 1839
4497 3440
4497 5287
4500 190
4500 809
4500 6053
4500 7310
4502 4341
4502 646
4502 1794
4502 2127
4502 8828
4503 2454
4503 1029
4503 6574
4505 6684
4505 692
4505 2091
4505 3032
4505 9860
4508 72
4509 5785
4510 7288
4512 6114
4521 670
4522 8146
4524 8680
4525 6497
4526 5208
4527 9540
4529 7147
4529 1899
4529 2983
4530 1196
4530 272
4532 9377
4533 5054
4534 7945
4534 8567
4537 1553
4537 147
4537 1394
4537 4808
4537 9416
4537 9544
4539 1656
4539 1741
4539 2034
4539 3547
4540 8806
4540 9201
4541 7066
4541 8754
4542 4608
4543 6761
4544 9049
4546 243
4546 1389
4546 4150
4546 6195
4548 6458
4548 1614
4550 885
4553 9383
4554 6206
4554 1681
4554 6394
4557 4780
4558 449
4558 3883
4559 4669
4559 7044
4561 8368
4561 9760
4562 8180
4564 2988
4564 2316
4564 5833
4564 7071
4565 9719
4565 9910
4567 7581
4569 7112
4574 1518
4575 6450
4576 3610
4576 576
4576 2484
4576 5573
4577 7868
4579 2086
4579 2914
4582 506
4584 4993
4584 8774
4585 6661
4586 6205
4586 551
4586 861
4586 8705
4587 3906
4587 1930
4587 4153
4589 5611
4589 7350
4591 8842
4593 9991
4596 8306
4597 7605
4597 7956
4598 4582
4598 5979
4598 86
4598 954
4598 1347
4598 2978
4600 8161
4600 1579
4601 5129
4601 6088
4602 4931
4602 8821
4605 6355
4605 7510
4606 4759
4608 6309
4608 9783
4609 8526
4610 9784
4610 928
4610 2620
4611 6087
4612 6902
4614 4484
4614 2262
4614 5353
4617 7479
4619 8583
4620 4835
4620 3376
4620 7243
4621 9626
4623 5673
4623 6398
4623 6928
4624 5798
4624 8911
4625 8456
4627 8231
4628 5825
4628 7426
4629 4720
4629 6682
4630 6181
4632 8359
4634 7489
4634 1547
4634 4214
4634 6915
4634 7028
4634 7627
4635 8184
4636 5435
4636 6533
4636 4811
4636 9250
4637 9255
4638 5127
4638 5159
4638 5395
4640 7636
4643 6886
4643 7899
4646 5369
4648 87
4648 8022
4648 8058
4650 2296
4650 6845
4650 1200
4650 3670
4650 5953
4651 8242
4651 9462
4653 3613
4653 2246
4656 4997
4657 8501
4658 6000
4658 569
4658 155
4658 279
4659 906
4660 5267
4662 9410
4663 5406
4664 6648
4665 4739
4666 3723
4668 863
4669 7449
4675 5261
4675 9849
4678 8628
4681 8942
4683 7921
4684 5659
4685 3160
4685 1222
4687 8430
4691 9451
4692 6251
4694 54
4694 5352
4696 7471
4697 4912
4699 22
4699 1561
4699 7278
4700 4824
4702 7460
4703 5510
4703 7011
4705 8352
4711 8613
4711 2508
4711 7753
4712 5971
4713 5080
4713 6330
4714 9785
4716 5163
4716 6720
4718 7892
4719 6218
4719 6316
4719 8102
4720 7777
4723 6216
4723 7748
4724 5060
4724 8351
4726 8676
4727 2802
4727 106
4727 542
4731 7567
4732 900
4732 3060
4732 28
4732 2133
4734 136
4734 9950
4738 5519
4738 5976
4738 8630
4741 5101
4741 9483
4744 7239
4744 7735
4745 6005
4746 6828
4746 8966
4750 7209
4750 9963
4751 3337
4752 4734
4752 6995
4752 9356
4752 4537
4752 6169
4752 56
4752 729
4752 7422
4754 8071
4758 7626
4758 2162
4758 4007
4760 5779
4764 6604
4764 6796
4765 8339
4768 4574
4768 2441
4768 5703
4768 3310
4768 3940
4768 4989
4769 5364
4772 7478
4772 2727
4775 7123
4777 7323
4777 8049
4778 6893
4778 8906
4779 9350
4779 8472
4779 2310
4788 1979
4788 1950
4788 3306
4791 8794
4791 4023
4791 5472
4793 1193
4794 5839
4794 8200
4795 5609
4796 9290
4797 9624
4797 4194
4797 7450
4797 676
4797 5759
4798 7666
4798 8154
4798 9755
4802 6793
4803 7894
4803 1151
4803 5205
4803 8166
4803 8222
4806 5535
4807 3074
4811 6674
4812 6589
4812 8248
4812 2538
4812 3252
4816 8336
4817 9555
4820 5557
4820 9322
4824 6135
4827 5631
4830 6366
4830 6472
4830 8379
4834 5903
4835 27
4837 9508
4837 9826
4837 1196
4837 2357
4837 8669
4838 3614
4838 9307
4838 644
4838 1147
4838 1216
4838 1470
4838 1923
4839 5892
4839 6069
4844 8596
4845 6837
4853 9068
4854 2364
4855 9711
4856 9121
4859 9265
4859 9447
4861 7353
4862 4905
4862 5681
4864 8516
4870 7613
4871 6307
4872 5422
4872 6311
4875 839
4875 210
4875 354
4875 4644
4875 5959
4877 1073
4877 4666
4877 1761
4877 3647
4877 8236
4878 4999
4880 378
4881 8741
4882 8521
4883 8358
4884 6524
4885 5317
4887 8505
4888 1407
4888 5913
4891 8187
4892 5537
4893 9829
4894 461
4894 1279
4894 3325
4894 6941
4895 5378
4895 5562
4896 1073
4896 5547
4896 221
4896 1334
4896 8814
4900 7756
4901 6662
4901 9697
4903 5581
4904 5811
4904 7824
4905 9685
4909 8961
4909 911
4909 2208
4910 9916
4912 4922
4912 5485
4912 5494
4915 4659
4915 2652
4915 9438
4918 9459
4919 6338
4920 5122
4920 3275
4920 3889
4920 4887
4921 9422
4927 5298
4928 5283
4928 5556
4928 6918
4930 236
4930 1661
4930 2687
4930 3590
4930 3700
4932 5616
4932 6762
4936 6543
4936 8642
4938 7473
4938 9066
4942 6734
4943 5045
4943 8687
4948 3567
4948 6578
4948 2804
4948 6107
4949 5110
4949 6117
4950 3391
4950 9318
4950 7069
4950 2651
4950 6138
4951 7104
4952 40
4952 1000
4952 8402
4953 7236
4954 6862
4963 8831
4968 5396
4969 7773
4970 1054
4970 504
4970 3351
4972 427
4972 469
4972 820
4972 5419
4973 6668
4973 2085
4978 1203
4978 572
4978 4974
4978 7829
4980 8137
4983 1317
4983 1573
4983 2289
4983 174
4983 7693
4983 9533
4987 5528
4987 2346
4988 7864
4988 9618
4991 5719
4992 8169
4992 1172
4992 2031
4993 5977
4993 9108
4994 6491
4995 7394
5003 6363
5003 6429
5012 341
5016 9707
5017 9713
5018 8896
5018 9407
5019 8786
5019 9070
5020 5428
5020 7624
5022 8370
5022 9767
5023 7802
5024 5830
5026 6624
5027 4131
5028 5043
5028 1319
5028 2803
5030 8673
5030 3797
5030 4281
5032 223
5032 1068
5032 1735
5035 3832
5039 5325
5043 2702
5043 3834
5043 4109
5043 6586
5046 6760
5047 5387
5048 5695
5049 5732
5049 8802
5050 5438
5050 4576
5050 4270
5050 3707
5050 5720
5057 7809
5057 632
5057 1323
5057 2926
5057 5595
5057 6531
5060 5927
5062 7343
5062 2525
5062 3281
5062 4030
5064 3456
5064 1214
5065 8985
5065 8817
5065 5804
5066 7168
5066 6593
5066 515
5066 802
5066 5555
5067 6532
5070 1210
5070 9442
5073 5277
5073 6306
5074 1507
5074 8019
5074 662
5074 943
5074 3228
5074 3581
5074 4944
5075 5487
5075 6276
5077 8539
5080 5622
5080 5950
5081 7646
5083 5105
5084 6056
5086 6141
5086 7509
5086 1669
5086 3443
5086 4597
5086 6817
5086 9504
5087 5760
5087 8021
5092 7110
5095 6411
5099 5508
5101 6375
5103 5807
5105 7332
5108 5978
5110 5371
5114 9672
5114 2558
5117 7272
5118 6467
5122 4002
5123 865
5123 9727
5123 5498
5123 2580
5123 998
5123 3043
5127 7063
5128 8478
5130 8688
5140 6813
5140 8760
5141 7087
5145 7024
5146 6288
5146 7395
5147 7747
5147 9627
5148 7130
5151 2849
5151 4174
5151 6953
5151 384
5151 5577
5151 6269
5153 5437
5155 8151
5156 8015
5160 1118
5160 639
5160 1799
5160 4740
5160 6392
5162 6712
5163 7601
5163 9135
5164 6591
5165 4448
5165 1497
5165 1100
5165 3536
5165 6297
5167 7904
5168 8020
5170 5070
5170 1089
5170 1162
5170 1620
5170 6924
5172 6162
5176 8226
5176 959
5176 1093
5176 2029
5176 3535
5177 8122
5178 6395
5178 938
5178 2440
5178 2966
5179 9413
5186 5747
5186 5987
5189 8138
5194 4108
5194 4685
5196 9138
5196 9548
5198 6072
5199 9245
5201 8470
5203 7048
5204 6705
5204 9236
5205 6665
5207 7318
5208 5705
5210 9419
5211 8646
5214 2001
5214 1587
5214 8722
5217 7118
5218 8840
5220 1854
5220 1329
5220 8156
5221 5714
5222 8439
5224 9670
5224 60
5224 3091
5225 8299
5226 6833
5227 8372
5228 7541
5228 8230
5230 6101
5231 420
5231 1190
5231 3267
5231 5059
5231 7827
5232 6697
5232 8508
5233 5340
5233 6908
5234 6800
5235 7135
5235 6766
5236 5895
5238 5821
5238 5585
5238 721
5238 1007
5240 8189
5241 3851
5241 1566
5242 6372
5244 5665
5245 8317
5247 5584
5247 1430
5249 6647
5249 9013
5251 7662
5251 9843
5257 9386
5257 1180
5257 3869
5257 5632
5259 7654
5261 8609
5261 9391
5262 549
5262 9808
5262 4552
5262 4955
5267 6929
5270 6373
5271 6468
5273 6797
5273 450
5273 5461
5273 8847
5274 7745
5274 8497
5275 7859
5275 57
5275 2836
5275 3357
5276 6086
5276 8263
5278 8699
5279 9776
5281 9838
5282 158
5282 783
5284 6401
5284 9955
5289 5731
5289 7429
5290 6687
5290 2045
5290 4613
5290 7638
5293 8074
5293 9458
5296 8992
5298 6326
5298 7676
5299 7012
5300 7439
5301 5708
5301 585
5301 6914
5305 6235
5306 8127
5306 8653
5312 9484
5313 7056
5313 8399
5313 9561
5314 5942
5314 6539
5314 7131
5315 8702
5315 9715
5317 8619
5321 3876
5321 5888
5322 2017
5322 6821
5325 5445
5326 5939
5326 128
5326 4534
5326 5014
5326 5725
5329 8902
5330 6374
5331 7721
5333 8495
5334 5848
5335 1692
5335 9344
5335 4872
5336 8795
5336 9434
5337 2913
5337 7438
5337 445
5337 3491
5338 6255
5338 1167
5339 6489
5342 5385
5342 6244
5342 9531
5344 8962
5347 6849
5351 8879
5351 83
5351 5933
5351 7218
5352 7160
5353 5644
5353 7477
5354 2813
5356 5515
5359 7224
5360 6880
5362 6703
5370 6471
5375 8885
5377 7772
5377 8547
5380 980
5380 8376
5380 1621
5380 9367
5387 9238
5387 9737
5389 8603
5390 9124
5391 804
5391 2239
5391 1548
5391 2790
5391 3338
5394 6289
5396 7273
5396 8444
5396 9807
5397 6129
5399 5961
5400 497
5400 2132
5400 2145
5400 2366
5400 2780
5400 8332
5402 5224
5402 3223
5402 3721
5402 9576
5403 6022
5404 7634
5407 8414
5407 5245
5407 5370
5408 7203
5409 7500
5409 4636
5409 138
5411 8558
5411 8850
5415 6039
5418 8977
5418 9832
5420 8073
5420 8671
5425 9342
5428 9570
5430 9909
5430 9494
5430 731
5430 2613
5432 6115
5432 7900
5432 9831
5433 7124
5433 9932
5434 1813
5434 4287
5435 5499
5435 8258
5436 8134
5438 9679
5438 4694
5440 8038
5441 7775
5441 8898
5442 6838
5449 7908
5450 8841
5450 9022
5451 7875
5452 7710
5453 1200
5453 240
5453 1978
5459 9541
5461 8737
5463 294
5463 5094
5465 5777
5465 9600
5466 2124
5466 4378
5467 8718
5468 6008
5471 7293
5474 1791
5474 5032
5474 200
5474 251
5474 6380
5475 370
5483 7177
5486 3829
5486 936
5486 4154
5486 4094
5488 7344
5489 9940
5489 2764
5492 5960
5494 8018
5497 2928
5497 1017
5497 1478
5497 5132
5498 5835
5498 7985
5501 9499
5502 1558
5502 2429
5503 5591
5503 7770
5504 6209
5505 7902
5509 8239
5511 7874
5512 9703
5517 8302
5523 8413
5523 405
5523 788
5523 4671
5526 8580
5528 7271
5528 3517
5531 5854
5532 7592
5532 7815
5532 9375
5533 8042
5533 6226
5534 9705
5534 6058
5534 649
5534 2475
5534 2470
5537 7400
5537 8735
5538 5845
5539 1227
5540 7163
5540 8261
5541 7521
5542 2981
5542 2098
5543 5782
5543 6286
5544 8940
5547 462
5548 669
5553 8109
5557 8605
5559 589
5559 1747
5559 3798
5559 9985
5561 7436
5562 6609
5563 8956
5565 6910
5566 6669
5567 8820
5570 6963
5570 8971
5571 4040
5572 8538
5572 8757
5572 9888
5576 8331
5576 9841
5579 8307
5581 3585
5584 6378
5584 6919
5584 1161
5584 3830
5587 3747
5587 2060
5587 2063
5587 2106
5590 5808
5590 2867
5593 6183
5595 6379
5596 5943
5599 6116
5599 6633
5599 8569
5600 6121
5600 4909
5600 8114
5600 4152
5602 2083
5602 2354
5602 3501
5602 2682
5602 3699
5602 4682
5602 4966
5606 4539
5606 2543
5607 7940
5608 374
5608 2324
5610 6465
5614 6187
5614 63
5614 202
5614 1511
5615 7378
5615 7408
5618 5748
5623 7790
5623 2735
5623 4136
5623 8725
5623 9754
5625 2283
5625 499
5625 899
5625 3205
5626 8288
5628 6493
5629 7029
5629 4204
5629 36
5629 1335
5629 2490
5632 7733
5632 8107
5636 2772
5636 5896
5637 8999
5640 7248
5640 9579
5646 6685
5648 6241
5649 4915
5649 805
5649 1426
5649 8517
5650 6332
5651 8485
5651 7265
5651 3568
5651 4713
5652 8633
5654 6445
5656 8198
5659 6879
5660 8006
5664 3329
5664 6568
5664 222
5664 5706
5666 7694
5668 8045
5668 9252
5669 4108
5669 3388
5669 457
5669 2894
5677 7742
5678 2722
5678 4458
5679 218
5679 1711
5682 981
5684 6572
5684 7245
5685 4558
5690 6344
5690 6742
5691 1592
5691 1308
5692 6443
5695 9052
5695 9927
5702 6128
5702 8322
5703 881
5703 2256
5703 3619
5703 4604
5704 3026
5704 3181
5708 771
5708 8296
5709 5202
5709 306
5709 5514
5710 8429
5711 6480
5715 9662
5717 2859
5717 6758
5717 5064
5717 7483
5718 8407
5721 9539
5722 4326
5722 6156
5726 6724
5729 6898
5731 6164
5731 6614
5736 1513
5736 8158
5738 6768
5738 6960
5740 2988
5740 8877
5742 6643
5744 1169
5744 3668
5749 9381
5749 9847
5750 782
5750 826
5753 868
5756 6931
5756 9979
5762 314
5762 1310
5762 2663
5763 9030
5764 7930
5765 7213
5768 5780
5768 8829
5769 7785
5769 8172
5771 7814
5773 6948
5774 8921
5777 8590
5779 7482
5780 8939
5782 6176
5789 9796
5791 9472
5796 8175
5798 8471
5800 5981
5802 6245
5802 8616
5803 6731
5803 7497
5803 8314
5805 7952
5806 7622
5808 8047
5808 4048
5808 7102
5809 8912
5810 736
5810 1047
5811 6089
5812 5744
5812 4314
5814 5824
5814 6544
5814 8953
5815 5864
5816 9545
5817 2254
5817 3518
5819 7128
5820 7086
5822 8078
5824 8895
5824 9370
5826 9392
5827 9609
5827 2839
5827 4467
5827 5192
5827 6831
5828 7603
5830 7852
5830 9485
5831 6067
5834 8480
5834 9876
5836 4
5836 2182
5836 7379
5837 8866
5838 9519
5839 9913
5840 4156
5840 894
5840 1726
5842 8123
5842 6520
5842 3634
5842 1142
5842 1113
5842 2014
5842 2887
5843 6253
5843 9174
5846 9261
5847 7274
5848 9550
5849 7797
5851 7544
5865 5351
5865 986
5865 5099
5866 5919
5867 6622
5867 8663
5876 5884
5877 519
5877 740
5877 301
5877 752
5877 9813
5878 6962
5882 9475
5882 430
5882 1350
5883 9941
5885 9427
5886 6955
5888 6554
5888 5024
5888 6431
5889 2190
5889 50
5889 2596
5892 9549
5893 7708
5895 9958
5899 6822
5901 8476
5903 6792
5910 9928
5911 9040
5914 9974
5915 8278
5917 8277
5917 925
5918 5999
5918 8266
5919 6670
5924 6001
5928 6049
5933 7428
5934 8892
5936 9982
5939 7177
5939 6016
5939 516
5939 5982
5941 6131
5941 8969
5943 8723
5944 7998
5946 7941
5947 502
5947 1102
5947 2563
5947 3562
5949 2479
5949 1797
5949 5417
5952 2175
5954 6856
5954 8804
5955 8298
5955 6839
5957 6157
5958 6047
5958 7409
5958 9477
5959 6484
5960 9382
5964 7335
5965 6617
5965 9163
5967 1679
5974 8070
5976 7771
5977 6043
5979 6781
5979 46
5979 739
5979 3575
5980 7303
5980 5717
5980 9041
5984 6716
5987 8768
5988 7204
5990 4295
5990 2569
5990 3422
5990 7006
5994 7308
5994 9268
5994 651
5994 4938
5994 6490
5996 8315
5996 8611
5997 8417
5998 6735
6000 7265
6000 2388
6000 2486
6000 4102
6000 6017
6001 6517
6004 6867
6006 7621
6008 7183
6010 6581
6012 6606
6013 1096
6016 9015
6019 1687
6019 1211
6019 9521
6019 4191
6019 4583
6019 7830
6020 9629
6020 165
6020 796
6020 1018
6020 4404
6020 7907
6020 8554
6021 350
6021 2743
6021 2036
6021 4704
6025 8796
6025 5900
6030 8040
6032 9696
6032 7949
6032 4040
6032 2298
6034 6140
6040 6693
6044 8823
6050 6717
6050 9573
6051 800
6054 9343
6055 7421
6057 1772
6057 3284
6057 7978
6058 9165
6058 2058
6058 101
6058 4876
6064 9159
6064 2080
6065 348
6065 527
6065 5575
6066 2953
6066 1144
6066 3368
6067 6427
6073 8326
6075 8419
6076 7912
6077 8454
6078 4444
6078 5889
6078 62
6079 9568
6084 6637
6088 9816
6088 9990
6089 8274
6092 6569
6093 6953
6093 1668
6093 8694
6093 9301
6095 6143
6096 7430
6098 7847
6103 1330
6104 8229
6104 8468
6107 7096
6107 7495
6107 9728
6108 9853
6118 3933
6118 1724
6121 3745
6121 7682
6121 982
6124 6155
6125 9951
6126 5664
6126 3828
6128 7007
6128 8548
6131 6236
6132 9173
6133 6677
6137 6904
6139 6972
6141 750
6141 4964
6142 248
6142 7018
6142 273
6142 9775
6143 7077
6143 8525
6144 9319
6146 7027
6148 7198
6150 6950
6151 7410
6151 9264
6151 9599
6153 9316
6154 9311
6154 290
6157 7228
6158 3022
6158 1882
6158 8028
6160 600
6160 1378
6160 4881
6163 8502
6164 9863
6168 9059
6169 4199
6169 1568
6169 1022
6170 1572
6170 2055
6170 5560
6170 6222
6172 6404
6177 6676
6178 10
6178 7990
6178 1713
6178 5952
6178 622
6178 652
6178 2387
6179 6681
6182 7081
6182 9320
6183 180
6183 4104
6183 4286
6184 6349
6184 6454
6184 7088
6184 7950
6185 9869
6186 6457
6187 20
6187 2614
6188 7196
6188 7678
6189 7382
6196 7396
6199 2292
6199 2555
6199 5285
6199 9981
6203 8079
6204 6521
6205 284
6205 5405
6206 1510
6206 4580
6206 9763
6208 8873
6210 8147
6223 8141
6226 6583
6228 9228
6229 6118
6229 2559
6229 9327
6229 42
6229 2575
6229 2993
6230 7093
6232 4271
6232 9359
6232 3534
6237 8789
6238 7991
6241 8853
6242 9725
6243 946
6243 6501
6243 8428
6244 8350
6247 6655
6248 8551
6248 3421
6251 8293
6255 902
6255 1475
6257 6979
6259 9742
6260 7853
6261 7966
6261 9117
6262 3093
6262 673
6264 9938
6265 9503
6265 748
6265 4707
6265 7014
6266 2681
6266 7369
6266 177
6269 9266
6270 9885
6278 7681
6278 9166
6279 7221
6283 6399
6284 6989
6284 9897
6285 9691
6291 6803
6291 3007
6293 8589
6295 7312
6300 1139
6300 5441
6301 7667
6302 3256
6302 4288
6302 9664
6305 6525
6305 8037
6308 6358
6312 5762
6313 1442
6313 2022
6313 7846
6314 7472
6314 7881
6315 7821
6317 7677
6322 7140
6323 1286
6323 2140
6323 7468
6324 8371
6325 7161
6325 1817
6326 6462
6326 8839
6327 8897
6329 7531
6329 257
6329 786
6333 6857
6333 489
6333 4714
6340 2400
6340 4395
6354 7306
6361 6612
6361 7932
6367 1287
6371 409
6371 3098
6371 6819
6372 7496
6372 8224
6375 6496
6379 9437
6384 6548
6387 7054
6387 7508
6389 3499
6389 1595
6389 4122
6389 846
6389 3571
6391 6541
6392 6921
6395 393
6395 2188
6395 3193
6396 5178
6396 1446
6396 2587
6397 9668
6400 9243
6400 7467
6400 7970
6402 7988
6402 2038
6402 7264
6402 7423
6405 7595
6406 5843
6406 4132
6406 6150
6406 8637
6415 1052
6415 7136
6421 6512
6421 8908
6426 2168
6426 3106
6430 7692
6431 9514
6433 7099
6433 321
6433 1417
6433 4939
6434 7176
6434 9880
6435 189
6435 9865
6436 8174
6436 8675
6438 9044
6440 9945
6447 9187
6448 2141
6448 91
6448 1051
6448 2518
6451 5547
6451 4321
6451 4612
6452 8574
6454 8256
6455 9094
6456 6613
6456 1763
6457 6561
6457 6639
6458 77
6458 814
6458 1891
6458 3560
6459 6699
6463 2631
6463 3565
6463 4024
6464 4376
6464 1720
6467 4557
6467 7961
6474 6971
6475 1722
6475 2995
6475 1228
6475 9543
6478 4562
6483 7584
6486 7287
6487 9852
6488 7089
6496 9323
6498 2949
6498 1369
6498 2215
6498 4839
6503 8125
6503 907
6503 4398
6506 4327
6507 3884
6507 2102
6511 735
6511 2469
6511 2545
6513 8556
6514 3660
6514 966
6520 815
6520 8719
6520 4877
6520 8083
6520 533
6520 1466
6523 7835
6523 330
6523 635
6523 751
6523 2378
6523 7074
6524 7277
6526 7650
6526 9019
6530 193
6530 2389
6530 3433
6530 6310
6532 7754
6532 8126
6533 388
6533 2026
6536 1876
6536 3819
6536 1591
6536 2798
6536 4370
6536 4474
6545 8125
6545 825
6545 8057
6546 2629
6549 8283
6552 8851
6554 1782
6554 2619
6554 2737
6556 2033
6556 3945
6556 5051
6557 9907
6558 963
6558 1314
6558 3756
6558 4865
6558 8846
6560 8729
6560 203
6561 6673
6562 1672
6562 3956
6562 8599
6562 764
6562 6540
6563 7111
6564 9791
6565 1041
6568 115
6568 4183
6572 8066
6576 503
6576 6650
6576 6853
6578 7153
6578 7388
6578 472
6578 3171
6578 9939
6580 3194
6581 6835
6582 1263
6582 6094
6582 5338
6582 293
6582 1578
6582 7962
6583 672
6583 2306
6583 3655
6586 8704
6587 8062
6587 680
6593 5908
6595 9589
6597 1938
6597 9279
6597 9745
6598 3090
6598 3427
6603 3717
6603 2608
6605 6810
6607 3403
6616 7247
6616 8697
6618 9546
6619 7531
6619 2553
6619 3541
6619 4782
6621 637
6621 4088
6622 9613
6628 8576
6629 9404
6630 2295
6630 2676
6631 4174
6631 6976
6631 1820
6631 5992
6631 6706
6634 7879
6644 5065
6644 2334
6644 440
6644 8863
6644 9167
6644 915
6644 1124
6644 4801
6645 3848
6645 2442
6645 2648
6650 7806
6652 6205
6652 1360
6652 8734
6653 7180
6659 8602
6659 9179
6660 1778
6660 991
6661 9387
6665 7260
6670 8449
6671 6919
6671 819
6672 6982
6678 7017
6684 3226
6685 7653
6687 8144
6687 8223
6690 4909
6690 8730
6690 856
6691 1760
6691 683
6691 3528
6691 4277
6692 5250
6692 5343
6692 8881
6694 8061
6696 6999
6696 7047
6696 7996
6696 9111
6699 7993
6706 7586
6710 9448
6711 6917
6718 7179
6719 9723
6720 6802
6721 7557
6721 8190
6730 9952
6730 81
6730 197
6730 3450
6732 7313
6734 9651
6737 7240
6737 7714
6743 9018
6743 3993
6743 8905
6744 1777
6744 2776
6744 5276
6745 7255
6745 9358
6747 7675
6750 8312
6756 7062
6757 9575
6758 7628
6758 3047
6758 3100
6762 7926
6763 9293
6769 5143
6769 5713
6770 7205
6770 9750
6777 7328
6778 8177
6781 1397
6783 8755
6789 7845
6797 2716
6803 1269
6803 3929
6803 9986
6804 2711
6805 8112
6810 8029
6812 9871
6822 9420
6822 9898
6823 9317
6823 1181
6823 6227
6825 6872
6827 8698
6829 6998
6838 7191
6838 8398
6840 9080
6844 94
6844 189
6844 1012
6844 6518
6845 379
6845 633
6845 4015
6846 3189
6847 1257
6847 2173
6850 8002
6850 3788
6850 4234
6850 7632
6850 7810
6854 5502
6854 3530
6854 6036
6856 7687
6857 1409
6857 6447
6858 5247
6859 7839
6859 9605
6865 6933
6865 6958
6867 7182
6869 7189
6869 9805
6869 7154
6869 937
6873 7749
6879 9704
6883 6984
6885 1663
6885 2618
6885 2653
6885 7769
6886 7107
6887 7338
6893 7212
6905 8560
6906 7893
6909 9463
6911 8082
6913 3190
6913 7387
6914 7535
6914 9389
6914 9729
6915 7405
6915 9116
6916 3388
6922 8509
6932 5753
6935 7736
6937 7565
6938 8438
6940 6587
6947 7149
6947 9471
6951 369
6951 4337
6953 1069
6954 1590
6955 9756
6956 332
6956 995
6956 2329
6956 3481
6956 5026
6959 8533
6963 699
6964 5752
6964 8195
6965 7507
6967 7150
6967 8976
6969 6556
6969 9936
6969 479
6974 5236
6975 7232
6976 296
6976 5612
6976 6527
6976 7492
6976 9315
6977 9332
6979 9233
6984 9246
6985 8832
6986 9636
6986 9244
6986 4703
6987 7618
6988 7958
6989 8262
6992 3605
6992 867
6992 6225
6995 924
6995 2245
6995 2925
6995 387
6996 7834
6999 9695
7001 9922
7003 9571
7005 6065
7005 648
7005 849
7005 6736
7007 8503
7007 9062
7010 1311
7010 3690
7010 8544
7012 9010
7015 9145
7018 1956
7018 2238
7018 8732
7021 8510
7021 8945
7022 8742
7026 8329
7027 8844
7029 1580
7030 7959
7031 2639
7033 7796
7035 1638
7035 1946
7035 5158
7035 5197
7035 7258
7038 8749
7045 8473
7047 7398
7052 8211
7055 3176
7055 3892
7057 7466
7057 339
7057 413
7057 5784
7067 7887
7068 7348
7069 8365
7069 16
7069 2032
7076 99
7076 690
7080 3550
7085 856
7085 9967
7085 3088
7085 7804
7086 2635
7096 9115
7097 9621
7099 3520
7099 1344
7099 2360
7100 8870
7100 9193
7101 8658
7101 4727
7101 3371
7103 2223
7103 5010
7106 361
7106 2501
7109 7516
7109 2233
7109 4454
7112 7157
7115 9857
7115 9327
7119 114
7119 2787
7119 4941
7119 7465
7123 9403
7124 8973
7127 9896
7134 5682
7134 4826
7135 2929
7139 4064
7139 4272
7142 7906
7142 8099
7145 9601
7147 5533
7147 208
7148 2477
7148 6160
7148 953
7148 1336
7148 3211
7148 7869
7150 7752
7151 3696
7151 1324
7151 1485
7153 6090
7154 7360
7167 7371
7167 1828
7167 2078
7168 890
7168 3454
7171 9306
7174 8733
7174 3139
7176 7315
7177 592
7177 944
7177 1751
7177 3652
7180 7803
7181 9259
7181 590
7181 1531
7181 5603
7181 6641
7186 9385
7187 9586
7189 1781
7189 4967
7192 6160
7192 268
7193 9959
7195 8337
7202 7246
7202 7261
7203 7523
7208 8257
7208 4054
7208 1203
7208 5581
7208 356
7208 1545
7208 4056
7208 4356
7208 4531
7208 6654
7208 7838
7210 2198
7210 2345
7210 2606
7210 4820
7210 4943
7214 9893
7218 7494
7218 7780
7220 7289
7221 9396
7222 3431
7222 3784
7222 4679
7225 6198
7227 7370
7228 9241
7229 183
7230 9940
7230 2043
7232 9275
7234 5238
7234 996
7236 8535
7237 9088
7248 1627
7248 1584
7249 3686
7249 8652
7249 2277
7249 5138
7250 9630
7251 9380
7253 9801
7254 7334
7255 7817
7255 7837
7263 6433
7263 2722
7265 1050
7265 8457
7265 188
7271 2255
7273 9644
7276 4987
7276 812
7282 1722
7282 7967
7282 2706
7282 3953
7283 2447
7283 6811
7285 7354
7286 7566
7289 7550
7289 8443
7294 8597
7295 8764
7298 9845
7301 8931
7303 5062
7303 4334
7303 512
7303 4403
7304 9935
7306 9220
7307 2667
7307 4712
7308 1948
7308 711
7308 2732
7308 8751
7312 8948
7313 8378
7316 801
7319 9445
7323 8178
7327 319
7327 961
7329 8459
7329 3420
7329 8046
7329 8836
7331 9176
7335 7488
7343 4351
7343 862
7343 5561
7344 9096
7345 47
7345 1885
7345 2758
7345 9304
7349 7625
7350 8170
7352 2580
7352 877
7352 2595
7355 9803
7358 7545
7358 7759
7366 9309
7368 9269
7369 7857
7369 2783
7369 5216
7369 5863
7369 6592
7371 7938
7371 8631
7375 9997
7375 1479
7380 7917
7380 8191
7383 7963
7387 8201
7388 5828
7390 6944
7390 3065
7390 5738
7397 9326
7399 4425
7399 164
7399 6314
7401 7459
7402 7148
7402 3731
7403 7413
7406 8005
7406 9450
7407 5271
7407 8867
7412 4369
7413 7424
7414 1790
7414 3617
7419 7371
7419 6270
7424 8519
7425 9405
7425 4860
7431 1165
7431 2773
7432 6847
7432 714
7433 5337
7433 2626
7435 8183
7437 9211
7438 7579
7438 2520
7439 64
7439 3803
7439 3894
7439 4319
7439 6719
7439 9171
7440 8435
7444 338
7444 342
7444 2497
7444 4224
7444 5189
7444 7298
7445 8164
7446 9503
7446 2762
7446 5134
7447 9321
7449 7882
7450 8951
7450 8952
7450 6751
7451 7661
7454 1944
7454 5716
7457 8221
7458 4431
7458 6858
7462 8614
7463 7656
7464 5231
7464 4044
7464 5107
7464 6250
7465 8426
7466 9615
7470 184
7470 550
7471 9646
7472 8077
7475 7610
7477 8499
7478 3417
7489 1092
7489 8254
7489 8568
7490 1371
7491 8091
7491 3366
7491 3601
7491 7463
7492 9583
7495 8714
7497 8991
7498 7345
7498 11
7498 1851
7500 3570
7500 51
7500 259
7500 4077
7503 8484
7506 7917
7506 9064
7509 439
7509 833
7509 1471
7509 3515
7509 1
7509 5757
7510 9258
7511 2938
7511 3880
7511 5693
7516 4263
7516 6231
7522 4391
7522 4178
7522 5538
7522 6977
7524 7999
7524 8684
7526 8996
7528 9746
7529 3172
7529 4977
7529 5442
7529 7512
7531 779
7531 9078
7534 4447
7534 4500
7537 9131
7537 9688
7540 2019
7540 2771
7550 9076
7551 366
7551 653
7551 1429
7551 2410
7552 21
7553 4069
7553 70
7554 7989
7554 9694
7557 2376
7564 9165
7564 544
7571 3498
7571 2734
7576 941
7576 3154
7577 8934
7579 9216
7585 9792
7585 2847
7587 8520
7591 4313
7591 3089
7591 6423
7604 9513
7605 8537
7616 8117
7616 660
7616 3961
7616 7250
7624 8017
7626 822
7626 4372
7628 3206
7628 471
7628 156
7628 2115
7628 2488
7628 2763
7633 5282
7633 429
7633 2671
7635 8345
7643 9164
7644 8259
7651 1825
7651 5331
7657 9680
7660 9968
7666 9998
7671 9207
7671 9263
7673 7119
7673 1900
7673 1960
7673 2303
7673 3900
7673 8395
7674 1648
7674 6197
7680 9828
7682 4271
7682 8595
7683 9414
7684 9953
7686 5939
7686 3553
7686 5783
7689 2053
7689 2349
7689 7856
7690 6779
7690 67
7690 9333
7696 8952
7696 1326
7696 4594
7696 5563
7697 8196
7699 9822
7700 2661
7700 688
7700 3346
7701 8790
7701 2167
7703 4079
7703 1843
7708 8039
7708 8445
7708 9262
7711 7491
7711 5649
7711 4672
7711 9212
7715 8353
7717 9738
7718 8131
7718 3758
7718 4515
7720 8900
7723 7942
7726 9562
7727 4034
7727 5548
7727 8338
7728 3076
7728 6207
7731 7275
7734 9923
7737 8347
7743 2460
7744 936
7744 5580
7744 8515
7745 3577
7750 8182
7750 298
7760 8489
7760 3875
7766 5151
7766 3480
7770 9012
7778 8396
7781 98
7781 9092
7782 6514
7782 8355
7782 983
7784 6995
7784 1140
7784 5086
7784 3760
7784 7174
7784 204
7785 7909
7788 3890
7788 7208
7788 3330
7788 2557
7788 3960
7789 2765
7790 1268
7790 6068
7791 6885
7792 7812
7794 8592
7794 811
7794 1692
7797 9239
7803 8584
7807 7828
7809 599
7809 693
7813 9528
7816 9364
7824 9390
7825 8111
7825 1391
7825 2281
7825 8627
7828 9095
7831 9141
7834 2930
7835 1005
7835 7517
7839 9029
7843 8670
7843 9119
7844 9854
7844 1285
7844 3313
7844 4383
7846 8369
7848 4779
7857 4443
7857 5543
7858 9089
7862 1290
7862 2753
7862 3638
7862 6875
7866 8124
7867 5409
7867 657
7870 817
7870 7384
7886 8883
7888 1211
7888 1467
7888 3356
7889 7768
7889 8854
7889 3419
7891 8157
7891 8570
7891 9971
7893 9150
7897 529
7897 6461
7903 3811
7903 3415
7906 8748
7911 9759
7916 9058
7921 6292
7923 216
7923 916
7923 2808
7924 475
7924 2994
7924 5383
7936 569
7936 1598
7936 4131
7936 7345
7936 1178
7936 5397
7939 3838
7939 196
7939 328
7941 8496
7943 1295
7944 8805
7949 8459
7951 1577
7951 6560
7953 32
7953 6687
7953 1349
7954 2938
7954 5838
7959 4716
7964 9125
7967 6804
7967 2519
7967 8163
7968 1606
7968 3350
7968 8475
7968 2320
7968 5503
7968 6362
7968 6417
7968 7639
7968 9924
7972 5542
7974 8036
7976 9149
7988 2997
7990 5214
7990 3832
7990 1725
7990 3942
7990 7732
7997 8949
8000 8011
8002 1986
8002 2077
8002 2309
8004 2739
8004 811
8004 1944
8004 6256
8008 8162
8009 1500
8009 3242
8009 3413
8019 7615
8019 3800
8019 546
8019 5621
8023 8394
8023 253
8033 1163
8033 1443
8033 3364
8033 4275
8042 606
8042 1657
8042 5893
8042 7499
8044 8708
8047 261
8047 875
8048 8103
8048 3304
8048 3360
8048 2566
8048 2670
8050 5883
8050 6970
8055 1600
8055 3740
8059 4894
8059 4660
8062 470
8062 701
8062 3434
8063 8391
8064 4115
8064 2007
8064 6104
8065 7848
8065 191
8065 2283
8065 39
8065 7836
8068 9529
8069 4791
8069 295
8069 810
8069 2820
8069 2916
8069 4684
8069 9312
8072 7388
8074 5771
8075 3289
8075 715
8075 1892
8075 2067
8075 3116
8075 7197
8080 9055
8083 45
8084 4699
8084 6333
8084 6912
8087 3138
8087 5650
8089 6478
8089 1963
8089 2301
8089 7235
8090 1989
8090 4878
8091 2485
8091 135
8092 8410
8092 9097
8093 2481
8093 2639
8093 7896
8095 1083
8095 3678
8095 3931
8095 5111
8095 6756
8095 8060
8103 7010
8103 5836
8103 8572
8104 84
8108 1911
8108 4460
8109 9556
8111 860
8111 4868
8114 7029
8114 6
8114 1606
8114 4469
8117 37
8117 107
8117 228
8117 1718
8119 5559
8119 6478
8123 1448
8123 2413
8123 9153
8127 9441
8129 9978
8131 1804
8131 2392
8131 5323
8138 8557
8139 1450
8139 4389
8140 859
8140 168
8140 1601
8140 1662
8140 3694
8148 1831
8148 1840
8148 7326
8150 424
8150 5518
8157 8756
8158 9674
8160 9235
8160 7503
8161 377
8161 4253
8161 5495
8167 4593
8169 858
8169 8344
8171 5231
8171 979
8171 5109
8171 6871
8179 2012
8179 2057
8179 2463
8179 795
8179 4859
8179 6284
8179 9766
8180 8390
8182 1698
8182 8373
8183 8784
8188 8682
8195 9698
8202 8301
8204 8442
8206 1771
8206 360
8206 4371
8208 399
8208 3086
8208 9235
8208 6499
8208 7705
8209 8059
8209 8320
8214 9884
8216 8549
8219 436
8219 5009
8219 5166
8224 9285
8226 2672
8226 2964
8226 4292
8226 4476
8231 9790
8233 9994
8235 3718
8235 8719
8235 570
8235 4168
8235 7699
8235 2832
8235 4316
8237 9054
8240 7308
8240 406
8240 3361
8240 5849
8240 7267
8240 7532
8241 1461
8244 1501
8244 8094
8245 8997
8246 9643
8248 8148
8248 1491
8248 2016
8248 4110
8254 9209
8255 8401
8256 8654
8257 9376
8257 5123
8257 3179
8257 1265
8260 2661
8260 69
8260 879
8260 5363
8261 9362
8264 310
8264 2112
8268 9198
8271 6013
8272 8721
8272 9524
8275 8465
8277 9287
8279 5120
8279 8993
8281 7743
8281 3777
8282 548
8286 286
8286 7631
8289 9567
8290 623
8290 2612
8290 6280
8291 7222
8291 1273
8291 7206
8291 9553
8298 477
8298 9090
8304 5608
8304 2062
8308 8363
8310 8418
8311 9085
8329 9388
8332 8909
8333 538
8333 3559
8333 583
8334 1455
8334 3294
8334 7216
8334 9700
8337 8648
8338 2268
8338 3621
8338 5909
8340 4376
8340 3789
8340 4107
8342 4793
8342 5938
8342 7751
8345 9873
8346 3950
8346 1240
8346 1604
8355 3766
8356 762
8356 9439
8356 1309
8356 6487
8358 9937
8360 0
8360 2325
8360 8260
8360 1818
8364 503
8364 6580
8364 6558
8364 2923
8364 631
8364 4038
8365 1185
8365 1220
8365 2499
8365 4373
8365 5870
8375 8781
8376 1197
8379 9219
8386 965
8386 4563
8388 7431
8388 4655
8391 9453
8394 7551
8394 677
8394 3656
8394 6168
8405 2323
8405 6795
8408 8830
8409 4209
8409 1023
8409 1544
8409 2343
8409 8575
8411 9565
8412 9658
8413 15
8413 4119
8414 743
8414 821
8414 3318
8414 8181
8416 6976
8416 6110
8419 8717
8420 4072
8435 8798
8440 5176
8440 3213
8440 9560
8440 7055
8440 6390
8440 663
8440 2592
8440 7319
8446 9751
8457 8452
8457 9474
8458 1914
8469 9294
8472 8279
8472 2473
8472 4794
8472 5382
8473 9073
8475 987
8482 151
8485 924
8485 1439
8485 3787
8488 1552
8488 5529
8489 4318
8489 4345
8490 9702
8492 3317
8492 1293
8492 9336
8493 1408
8493 2708
8493 4258
8493 5212
8493 9559
8497 9335
8497 3001
8497 3082
8497 3333
8498 1046
8498 8924
8508 9105
8511 8726
8514 49
8517 9753
8523 9479
8528 8957
8528 4487
8528 269
8528 4897
8529 8915
8529 8139
8529 403
8536 9972
8538 8706
8540 9859
8549 8812
8550 5585
8550 9701
8550 8131
8550 1004
8550 8703
8551 3014
8551 4217
8555 421
8574 9106
8583 9473
8586 2837
8586 5564
8587 697
8587 1028
8587 7078
8590 9113
8591 3187
8591 2550
8591 7607
8592 9952
8592 1152
8592 1428
8592 6446
8593 2636
8593 7515
8594 3692
8594 3238
8594 8903
8595 6376
8599 4968
8603 9069
8606 9761
8612 9622
8613 2076
8613 4858
8617 29
8623 8492
8623 425
8623 528
8623 6658
8625 4074
8625 2274
8625 9832
8625 3232
8631 9574
8636 9515
8639 2471
8639 5402
8639 558
8639 671
8639 1107
8639 5393
8639 8926
8641 4692
8641 2332
8645 8834
8651 873
8651 1958
8651 1994
8651 8251
8652 7359
8655 7552
8655 6080
8658 448
8658 1201
8658 1968
8661 9221
8661 5975
8662 1141
8662 1149
8662 41
8665 6329
8665 464
8665 808
8672 6769
8672 658
8673 2831
8673 4673
8679 343
8679 9470
8679 371
8679 1431
8681 9675
8684 8712
8685 9033
8687 9305
8691 8693
8695 8796
8695 8888
8697 9520
8702 9048
8709 2660
8713 9899
8715 426
8715 9552
8715 2982
8715 1543
8716 62
8719 8209
8728 7731
8728 778
8728 3969
8729 2912
8729 7725
8730 2858
8730 910
8730 4053
8730 6876
8731 2961
8731 4247
8731 4575
8731 5320
8733 276
8738 1262
8738 1464
8742 9818
8743 8835
8743 211
8743 3048
8745 7122
8746 9925
8758 4442
8758 4549
8765 6406
8765 3754
8765 4041
8765 7774
8765 8573
8775 6511
8775 9569
8780 9186
8781 8843
8786 8955
8790 799
8790 7269
8791 6103
8791 9915
8794 6300
8794 1053
8794 1487
8794 1690
8794 7620
8797 3187
8797 5600
8797 4653
8797 4699
8797 5001
8797 6339
8798 9655
8800 8595
8800 1366
8800 2064
8800 4631
8800 6420
8800 8067
8803 7276
8803 2210
8803 4819
8803 8527
8803 8788
8807 7106
8808 5322
8808 526
8808 2826
8808 3644
8810 5489
8810 950
8810 1791
8810 82
8813 6341
8813 8778
8817 3071
8833 5170
8833 369
8833 1011
8833 1288
8833 8920
8835 415
8835 3984
8841 9547
8851 9993
8852 9889
8855 3615
8855 382
8855 2113
8861 7489
8861 187
8861 1934
8861 6127
8863 4880
8863 6594
8872 9337
8879 7470
8879 491
8879 7880
8880 830
8883 9580
8886 9455
8889 927
8889 1383
8893 695
8893 2423
8899 7972
8899 537
8901 8957
8901 1399
8901 6832
8901 7792
8904 2585
8904 617
8904 4123
8904 4724
8904 7602
8906 9112
8915 9101
8918 816
8918 1526
8918 1647
8918 3483
8923 807
8923 1658
8925 2925
8925 9243
8925 8281
8925 2318
8925 3662
8928 1589
8928 2406
8928 4913
8928 7818
8931 8975
8937 4207
8937 610
8950 1867
8950 2906
8950 4590
8950 5092
8951 434
8951 2075
8951 3405
8952 6975
8954 8054
8957 432
8957 1520
8957 3164
8958 9148
8961 1229
8961 1505
8961 6744
8961 6167
8964 5300
8964 8349
8972 8901
8972 6313
8972 1624
8972 3378
8972 3628
8977 9809
8977 4448
8977 173
8977 1348
8977 8176
8981 3829
8981 7651
8981 664
8981 6954
8981 3192
8983 1198
8983 4981
8983 7254
8985 5074
8985 2645
8985 9706
8985 3867
8985 4818
8985 5350
8989 8555
8989 7990
8989 1049
8989 2987
8989 4687
8990 8241
8990 1034
9001 3149
9001 6964
9001 1795
9001 4848
9002 486
9002 226
9002 2713
9005 2072
9005 3302
9005 5966
9010 9522
9011 5012
9011 8859
9015 444
9015 4155
9015 8483
9016 9449
9016 1623
9016 4586
9016 2552
9016 3836
9016 3839
9018 325
9018 2373
9029 9650
9038 8282
9038 1665
9040 9954
9045 9109
9050 3670
9050 252
9050 3353
9051 9973
9053 446
9053 1976
9056 9428
9056 2918
9058 9638
9059 9122
9063 9311
9063 5876
9063 9591
9066 9868
9072 8048
9072 7539
9075 9731
9087 9764
9097 9820
9101 6691
9101 728
9101 2350
9105 9919
9106 9481
9119 9926
9123 1136
9126 9692
9128 0
9128 6118
9128 3749
9128 1941
9128 5955
9128 2605
9140 5568
9140 5213
9140 5284
9147 8738
9147 213
9147 4095
9154 1821
9154 8728
9154 1972
9155 9726
9155 687
9155 3464
9155 4195
9158 9989
9159 9423
9159 48
9159 5255
9159 5288
9160 6598
9160 1422
9165 8617
9167 3200
9167 4598
9167 2399
9169 144
9169 8875
9177 9208
9177 9518
9181 4450
9181 307
9190 8338
9192 624
9192 6980
9192 7723
9194 4558
9197 9535
9200 659
9200 2330
9200 9948
9221 249
9221 380
9221 1307
9221 9401
9224 6390
9234 4464
9234 1852
9235 1841
9235 4158
9235 8479
9237 1080
9237 2159
9237 3251
9237 8106
9238 9298
9239 9837
9242 5447
9242 6354
9243 2359
9244 126
9244 2642
9244 7331
9245 9469
9250 9464
9255 9506
9256 8405
9256 333
9256 609
9256 2336
9256 6840
9258 9824
9259 344
9259 3237
9259 5822
9268 5046
9268 6522
9270 712
9270 5220
9270 871
9270 3234
9270 3511
9272 1827
9278 6660
9278 2172
9284 5032
9284 2524
9284 9151
9296 8599
9297 9678
9303 9969
9307 2010
9308 93
9308 1554
9308 1077
9308 1084
9308 3735
9311 2171
9311 4719
9311 7075
9311 9083
9313 9537
9317 5242
9318 6721
9324 8493
9324 1811
9324 2807
9324 4188
9324 4806
9324 7302
9327 4473
9327 7606
9330 4521
9330 5878
9330 7386
9335 2822
9335 4763
9335 6134
9342 9585
9344 7490
9344 8865
9353 9689
9355 5086
9355 2104
9356 4280
9356 2953
9359 4103
9359 6455
9359 6827
9372 102
9372 125
9376 9457
9376 2655
9376 9777
9378 390
9378 2769
9380 9894
9386 7701
9386 3470
9386 5072
9390 9399
9393 6463
9393 2391
9393 2574
9393 2601
9393 4039
9394 336
9394 2928
9394 5008
9396 9505
9401 9639
9402 4270
9402 2079
9402 2850
9402 5596
9402 6452
9405 3195
9405 3230
9405 7407
9406 9744
9412 9490
9415 6533
9415 109
9415 404
9417 2505
9418 1381
9418 8133
9423 5721
9428 1174
9428 2236
9428 5274
9428 6700
9428 7217
9430 2602
9430 277
9432 4122
9432 5297
9439 9443
9439 148
9439 4996
9439 7060
9443 233
9443 6177
9443 9595
9449 7303
9449 5176
9449 8048
9449 3183
9449 3240
9449 4068
9449 358
9449 3785
9449 7842
9457 8797
9457 9417
9457 2217
9459 1653
9470 9495
9470 3746
9473 9584
9475 1351
9475 5140
9476 664
9476 7076
9483 9611
9491 7039
9491 7724
9494 7225
9494 3791
9495 123
9495 437
9495 3841
9495 4193
9508 1836
9508 4283
9516 2752
9516 2422
9516 3847
9519 9732
9521 2013
9521 4508
9526 9762
9532 7380
9532 5196
9535 1509
9535 5852
9535 6774
9535 8860
9551 904
9551 5174
9557 9652
9559 9851
9560 7161
9560 3322
9563 3570
9563 76
9563 118
9563 869
9563 2571
9564 9726
9564 1623
9564 9656
9564 1771
9564 100
9564 3435
9564 3954
9571 9665
9578 9918
9579 4930
9579 8481
9588 3230
9588 5115
9588 6180
9593 367
9593 9779
9593 5438
9593 79
9593 1320
9593 6453
9603 5967
9603 1054
9603 3487
9610 9614
9619 7249
9619 6051
9620 7980
9620 5686
9621 1274
9621 7186
9624 1957
9624 9912
9624 34
9624 4297
9626 9961
9631 2797
9631 2969
9631 3757
9631 5599
9631 7170
9631 7641
9631 8882
9633 6503
9633 4668
9633 7982
9633 9538
9636 984
9636 3087
9648 2390
9648 2069
9656 7030
9656 5746
9656 8490
9661 3107
9661 4554
9661 6511
9661 288
9661 1103
9661 5941
9661 6172
9661 8393
9664 9943
9669 8385
9670 1805
9671 780
9671 3460
9671 3806
9671 6315
9671 9823
9672 732
9672 4181
9679 1980
9679 7458
9679 1742
9679 4828
9687 5066
9696 3024
9696 2481
9696 7147
9696 1982
9699 9244
9699 2371
9699 5154
9701 7229
9701 119
9701 1233
9701 1538
9701 6937
9705 2274
9705 2144
9706 8761
9708 8409
9708 209
9708 241
9714 5722
9714 7446
9714 5865
9714 1640
9717 4168
9717 7953
9717 3660
9717 130
9717 2419
9720 4500
9725 9874
9726 4797
9726 5843
9726 250
9726 6753
9726 4663
9726 1719
9726 2793
9727 1489
9727 3995
9733 2274
9733 3680
9733 5096
9733 9693
9736 5704
9736 487
9744 9882
9758 9418
9758 476
9758 1353
9772 4117
9772 1449
9772 3896
9773 898
9773 3272
9773 6739
9775 9933
9776 523
9776 4588
9779 5840
9779 976
9779 5452
9781 7953
9781 7924
9781 127
9781 409
9784 140
9784 1469
9784 2312
9784 7042
9786 843
9787 3086
9787 8271
9787 2149
9792 567
9792 6646
9794 9670
9794 848
9795 755
9795 762
9795 975
9795 5448
9799 7699
9799 6844
9799 2097
9803 2609
9803 5042
9805 9572
9806 4439
9806 305
9806 4159
9807 9957
9808 7946
9808 3676
9809 4165
9809 1045
9809 3174
9809 9272
9809 4284
9809 4462
9811 4634
9811 4711
9811 1215
9811 2726
9812 2540
9812 8709
9812 4213
9814 397
9816 9844
9819 8488
9822 2347
9822 781
9826 1629
9826 754
9826 9184
9832 3083
9832 1744
9832 9181
9832 686
9832 4710
9838 703
9838 1313
9838 2459
9838 4384
9840 8981
9840 3473
9840 9532
9840 547
9840 3436
9854 1965
9854 17
9854 169
9857 1108
9857 2824
9857 6740
9857 7758
9870 441
9870 794
9870 1074
9870 2101
9870 2416
9870 3459
9870 8872
9881 6426
9881 2321
9881 3495
9881 4885
9881 6221
9886 6733
9887 2098
9894 9921
9895 1966
9895 7431
9901 2266
9905 1231
9906 1247
9909 971
9912 2404
9912 994
9912 1382
9936 6588
9936 292
9940 6277
9940 9180
9942 4237
9942 6159
9950 416
9950 704
9950 756
9950 2197
9950 2728
9950 3396
9952 3374
9952 7390
9952 25
9952 324
9967 2947
9967 3688
9967 5648
9991 6546
9991 2662
9991 2730
