digraph g {
	89 -> 51 [ label="L" ];
	51 -> 0 [ label="L" ];
	51 -> 81 [ label="R" ];
	81 -> 74 [ label="L" ];
	81 -> 83 [ label="R" ];
	89 -> 187 [ label="R" ];
	187 -> 106 [ label="L" ];
	106 -> 100 [ label="L" ];
	187 -> 212 [ label="R" ];
}
