digraph g {
	89 -> 51 [ label="L" ];
	51 -> 0 [ label="L" ];
	51 -> 81 [ label="R" ];
	81 -> 74 [ label="L" ];
	74 -> 71 [ label="L" ];
	71 -> 60 [ label="L" ];
	74 -> 78 [ label="R" ];
	81 -> 83 [ label="R" ];
	89 -> 187 [ label="R" ];
	187 -> 106 [ label="L" ];
	106 -> 100 [ label="L" ];
	106 -> 173 [ label="R" ];
	173 -> 159 [ label="L" ];
	159 -> 129 [ label="L" ];
	129 -> 115 [ label="L" ];
	129 -> 136 [ label="R" ];
	187 -> 212 [ label="R" ];
	212 -> 200 [ label="L" ];
	200 -> 197 [ label="L" ];
}
