%!PS-Adobe-3.0
%%DocumentNeededResources: font Helvetica
%%+ font Helvetica-Bold
%%+ font Helvetica-Oblique
%%+ font Helvetica-BoldOblique
%%+ font Symbol
%%DocumentMedia: a4 595 841 0 () ()
%%Title: R Graphics Output
%%Creator: R Software
%%Pages: (atend)
%%Orientation: Landscape
%%BoundingBox: 18 18 577 824
%%EndComments
%%BeginProlog
/bp  { gs sRGB 595.00 0 translate 90 rotate gs } def
% begin .ps.prolog
/gs  { gsave } bind def
/gr  { grestore } bind def
/ep  { showpage gr gr } bind def
/m   { moveto } bind def
/l  { rlineto } bind def
/np  { newpath } bind def
/cp  { closepath } bind def
/f   { fill } bind def
/o   { stroke } bind def
/c   { newpath 0 360 arc } bind def
/r   { 4 2 roll moveto 1 copy 3 -1 roll exch 0 exch rlineto 0 rlineto -1 mul 0 exch rlineto closepath } bind def
/p1  { stroke } bind def
/p2  { gsave bg fill grestore newpath } bind def
/p3  { gsave bg fill grestore stroke } bind def
/p6  { gsave bg eofill grestore newpath } bind def
/p7  { gsave bg eofill grestore stroke } bind def
/t   { 5 -2 roll moveto gsave rotate
       1 index stringwidth pop
       mul neg 0 rmoveto show grestore } bind def
/ta  { 4 -2 roll moveto gsave rotate show } bind def
/tb  { 2 -1 roll 0 rmoveto show } bind def
/cl  { grestore gsave newpath 3 index 3 index moveto 1 index
       4 -1 roll lineto  exch 1 index lineto lineto
       closepath clip newpath } bind def
/rgb { setrgbcolor } bind def
/s   { scalefont setfont } bind def
% end   .ps.prolog
/sRGB { [ /CIEBasedABC
          << /DecodeLMN
               [ { dup 0.03928 le
                        {12.92321 div}
                        {0.055 add 1.055 div 2.4 exp }
                     ifelse
                 } bind dup dup
               ]
             /MatrixLMN [0.412457 0.212673 0.019334
                         0.357576 0.715152 0.119192
                         0.180437 0.072175 0.950301]
             /WhitePoint [0.9505 1.0 1.0890]
           >>
         ] setcolorspace } bind def
/srgb { setcolor } bind def
%%IncludeResource: font Helvetica
/Helvetica findfont
dup length dict begin
  {1 index /FID ne {def} {pop pop} ifelse} forall
  /Encoding ISOLatin1Encoding def
  currentdict
  end
/Font1 exch definefont pop
%%IncludeResource: font Helvetica-Bold
/Helvetica-Bold findfont
dup length dict begin
  {1 index /FID ne {def} {pop pop} ifelse} forall
  /Encoding ISOLatin1Encoding def
  currentdict
  end
/Font2 exch definefont pop
%%IncludeResource: font Helvetica-Oblique
/Helvetica-Oblique findfont
dup length dict begin
  {1 index /FID ne {def} {pop pop} ifelse} forall
  /Encoding ISOLatin1Encoding def
  currentdict
  end
/Font3 exch definefont pop
%%IncludeResource: font Helvetica-BoldOblique
/Helvetica-BoldOblique findfont
dup length dict begin
  {1 index /FID ne {def} {pop pop} ifelse} forall
  /Encoding ISOLatin1Encoding def
  currentdict
  end
/Font4 exch definefont pop
%%IncludeResource: font Symbol
/Symbol findfont
dup length dict begin
  {1 index /FID ne {def} {pop pop} ifelse} forall
  currentdict
  end
/Font5 exch definefont pop
%%EndProlog
%%Page: 1 1
bp
18.00 18.00 823.89 577.28 cl
/Font2 findfont 14 s
0 0 0 srgb
435.34 542.73 (Histogram of x) .5 0 t
/Font1 findfont 12 s
435.34 36.72 (x) .5 0 t
30.96 304.84 (Frequency) .5 90 t
18.00 18.00 823.89 577.28 cl
0 0 0 srgb
0.75 setlinewidth
[] 0 setdash
1 setlinecap
1 setlinejoin
10.00 setmiterlimit
np
103.58 91.44 m
663.53 0 l
o
np
103.58 91.44 m
0 -7.20 l
o
np
236.29 91.44 m
0 -7.20 l
o
np
368.99 91.44 m
0 -7.20 l
o
np
501.70 91.44 m
0 -7.20 l
o
np
634.40 91.44 m
0 -7.20 l
o
np
767.11 91.44 m
0 -7.20 l
o
/Font1 findfont 12 s
103.58 65.52 (0.0) .5 0 t
236.29 65.52 (0.2) .5 0 t
368.99 65.52 (0.4) .5 0 t
501.70 65.52 (0.6) .5 0 t
634.40 65.52 (0.8) .5 0 t
767.11 65.52 (1.0) .5 0 t
np
77.04 107.25 m
0 395.18 l
o
np
77.04 107.25 m
-7.20 0 l
o
np
77.04 186.28 m
-7.20 0 l
o
np
77.04 265.32 m
-7.20 0 l
o
np
77.04 344.36 m
-7.20 0 l
o
np
77.04 423.39 m
-7.20 0 l
o
np
77.04 502.43 m
-7.20 0 l
o
59.76 107.25 (0) .5 90 t
59.76 186.28 (1) .5 90 t
59.76 265.32 (2) .5 90 t
59.76 344.36 (3) .5 90 t
59.76 423.39 (4) .5 90 t
59.76 502.43 (5) .5 90 t
77.04 91.44 793.65 518.24 cl
/bg { 0.8275 0.8275 0.8275 srgb } def
0 0 0 srgb
0.75 setlinewidth
[] 0 setdash
1 setlinecap
1 setlinejoin
10.00 setmiterlimit
103.58 107.25 132.71 395.18 r p3
236.29 107.25 132.71 316.14 r p3
368.99 107.25 132.71 158.07 r p3
501.70 107.25 132.71 395.18 r p3
634.40 107.25 132.71 316.14 r p3
ep
%%Trailer
%%Pages: 1
%%EOF
