\babel@toc {english}{}\relax 
\contentsline {section}{\numberline {1}\texttt {pst-calendar} -- different calendars}{4}{section.1}%
\contentsline {section}{\numberline {2}List of the available options for \texttt {pst-calendar}}{7}{section.2}%
\providecommand \tocbasic@end@toc@file {}\tocbasic@end@toc@file 
