graph {
	graph [bb="0,0,519.28,393.1"];
	node [label="\N"];
	0	[height=0.5,
		pos="208.39,136",
		width=0.75];
	5	[height=0.5,
		pos="139.1,40.64",
		width=0.75];
	0 -- 5	[pos="196.32,119.39 183.6,101.89 163.7,74.491 151.03,57.06"];
	1	[height=0.5,
		pos="297.51,74.044",
		width=0.75];
	0 -- 1	[pos="227.29,122.86 242.41,112.35 263.52,97.674 278.64,87.165"];
	6	[height=0.5,
		pos="139.1,231.36",
		width=0.75];
	0 -- 6	[pos="196.32,152.61 183.6,170.11 163.7,197.51 151.03,214.94"];
	2	[height=0.5,
		pos="297.51,197.96",
		width=0.75];
	0 -- 2	[pos="227.29,149.14 242.41,159.65 263.52,174.33 278.64,184.84"];
	4	[height=0.5,
		pos="27,194.94",
		width=0.75];
	5 -- 4	[pos="127.32,56.861 105.84,86.417 60.57,148.73 38.965,178.47"];
	3	[height=0.5,
		pos="27,77.064",
		width=0.75];
	5 -- 3	[pos="114.78,48.543 95.975,54.653 70.069,63.07 51.277,69.176"];
	4 -- 3	[pos="27,176.78 27,154.69 27,117.62 27,95.438"];
	9	[height=0.5,
		pos="393.28,323",
		width=0.75];
	12	[height=0.5,
		pos="303.04,270.9",
		width=0.75];
	9 -- 12	[pos="372.8,311.18 358.14,302.71 338.46,291.35 323.75,282.86"];
	11	[height=0.5,
		pos="303.04,375.1",
		width=0.75];
	9 -- 11	[pos="372.8,334.82 358.14,343.29 338.46,354.65 323.75,363.14"];
	10	[height=0.5,
		pos="492.28,323",
		width=0.75];
	9 -- 10	[pos="420.33,323 434.3,323 451.29,323 465.26,323"];
	6 -- 4	[pos="114.78,223.46 95.975,217.35 70.069,208.93 51.277,202.82"];
	11 -- 12	[pos="303.04,356.95 303.04,337.94 303.04,308.25 303.04,289.19"];
	7	[height=0.5,
		pos="234.12,18",
		width=0.75];
	8	[height=0.5,
		pos="360.12,18",
		width=0.75];
	7 -- 8	[pos="261.15,18 282.26,18 311.48,18 332.7,18"];
}
