digraph G {
  graph [class="cats"];

  subgraph cluster_small {
	  graph [class="small_cats"];

	  "House" [class="various"]
	  "Wild"  [class="forest"]
  }
  
  subgraph cluster_big {
	  graph [class="big_cats"];

	  "Lion" [class="yellow social"];
	  "Snow Leopard" [class="white solitary"];
  }
}
