%!PS-Adobe-3.0
%%Creator: graphviz version 3.0.0 (0)
%%Title: %3
%%Pages: (atend)
%%BoundingBox: (atend)
%%EndComments
save
%%BeginProlog
/DotDict 200 dict def
DotDict begin

/setupLatin1 {
mark
/EncodingVector 256 array def
 EncodingVector 0

ISOLatin1Encoding 0 255 getinterval putinterval
EncodingVector 45 /hyphen put

% Set up ISO Latin 1 character encoding
/starnetISO {
        dup dup findfont dup length dict begin
        { 1 index /FID ne { def }{ pop pop } ifelse
        } forall
        /Encoding EncodingVector def
        currentdict end definefont
} def
/Times-Roman starnetISO def
/Times-Italic starnetISO def
/Times-Bold starnetISO def
/Times-BoldItalic starnetISO def
/Helvetica starnetISO def
/Helvetica-Oblique starnetISO def
/Helvetica-Bold starnetISO def
/Helvetica-BoldOblique starnetISO def
/Courier starnetISO def
/Courier-Oblique starnetISO def
/Courier-Bold starnetISO def
/Courier-BoldOblique starnetISO def
cleartomark
} bind def

%%BeginResource: procset graphviz 0 0
/coord-font-family /Times-Roman def
/default-font-family /Times-Roman def
/coordfont coord-font-family findfont 8 scalefont def

/InvScaleFactor 1.0 def
/set_scale {
       dup 1 exch div /InvScaleFactor exch def
       scale
} bind def

% styles
/solid { [] 0 setdash } bind def
/dashed { [9 InvScaleFactor mul dup ] 0 setdash } bind def
/dotted { [1 InvScaleFactor mul 6 InvScaleFactor mul] 0 setdash } bind def
/invis {/fill {newpath} def /stroke {newpath} def /show {pop newpath} def} bind def
/bold { 2 setlinewidth } bind def
/filled { } bind def
/unfilled { } bind def
/rounded { } bind def
/diagonals { } bind def
/tapered { } bind def

% hooks for setting color 
/nodecolor { sethsbcolor } bind def
/edgecolor { sethsbcolor } bind def
/graphcolor { sethsbcolor } bind def
/nopcolor {pop pop pop} bind def

/beginpage {	% i j npages
	/npages exch def
	/j exch def
	/i exch def
	/str 10 string def
	npages 1 gt {
		gsave
			coordfont setfont
			0 0 moveto
			(\() show i str cvs show (,) show j str cvs show (\)) show
		grestore
	} if
} bind def

/set_font {
	findfont exch
	scalefont setfont
} def

% draw text fitted to its expected width
/alignedtext {			% width text
	/text exch def
	/width exch def
	gsave
		width 0 gt {
			[] 0 setdash
			text stringwidth pop width exch sub text length div 0 text ashow
		} if
	grestore
} def

/boxprim {				% xcorner ycorner xsize ysize
		4 2 roll
		moveto
		2 copy
		exch 0 rlineto
		0 exch rlineto
		pop neg 0 rlineto
		closepath
} bind def

/ellipse_path {
	/ry exch def
	/rx exch def
	/y exch def
	/x exch def
	matrix currentmatrix
	newpath
	x y translate
	rx ry scale
	0 0 1 0 360 arc
	setmatrix
} bind def

/endpage { showpage } bind def
/showpage { } def

/layercolorseq
	[	% layer color sequence - darkest to lightest
		[0 0 0]
		[.2 .8 .8]
		[.4 .8 .8]
		[.6 .8 .8]
		[.8 .8 .8]
	]
def

/layerlen layercolorseq length def

/setlayer {/maxlayer exch def /curlayer exch def
	layercolorseq curlayer 1 sub layerlen mod get
	aload pop sethsbcolor
	/nodecolor {nopcolor} def
	/edgecolor {nopcolor} def
	/graphcolor {nopcolor} def
} bind def

/onlayer { curlayer ne {invis} if } def

/onlayers {
	/myupper exch def
	/mylower exch def
	curlayer mylower lt
	curlayer myupper gt
	or
	{invis} if
} def

/curlayer 0 def

%%EndResource
%%EndProlog
%%BeginSetup
14 default-font-family set_font
% /arrowlength 10 def
% /arrowwidth 5 def

% make sure pdfmark is harmless for PS-interpreters other than Distiller
/pdfmark where {pop} {userdict /pdfmark /cleartomark load put} ifelse
% make '<<' and '>>' safe on PS Level 1 devices
/languagelevel where {pop languagelevel}{1} ifelse
2 lt {
    userdict (<<) cvn ([) cvn load put
    userdict (>>) cvn ([) cvn load put
} if

%%EndSetup
setupLatin1
%%Page: 1 1
%%PageBoundingBox: 36 36 278 258
%%PageOrientation: Portrait
0 0 1 beginpage
gsave
36 36 242 222 boxprim clip newpath
1 1 set_scale 0 rotate 40 40 translate
% 1
gsave
1 setlinewidth
0 0 0 nodecolor
80.0039 18 27 18 ellipse_path stroke
0 0 0 nodecolor
14 /Times-Roman set_font
75.0039 14.3 moveto 10 (1) alignedtext
grestore
% 2
gsave
1 setlinewidth
0 0 0 nodecolor
160.33 21.6483 27 18 ellipse_path stroke
0 0 0 nodecolor
14 /Times-Roman set_font
155.33 17.9483 moveto 10 (2) alignedtext
grestore
% 1--2
gsave
1 setlinewidth
0 0 0 edgecolor
newpath 107.1986 19.2352 moveto
115.5732 19.6155 124.7905 20.0342 133.1632 20.4144 curveto
stroke
grestore
% 3
gsave
1 setlinewidth
0 0 0 nodecolor
207.3612 86.872 27 18 ellipse_path stroke
0 0 0 nodecolor
14 /Times-Roman set_font
202.3612 83.172 moveto 10 (3) alignedtext
grestore
% 2--3
gsave
1 setlinewidth
0 0 0 edgecolor
newpath 172.1979 38.107 moveto
179.3819 48.0699 188.5063 60.7236 195.66 70.6445 curveto
stroke
grestore
% 4
gsave
1 setlinewidth
0 0 0 nodecolor
185.6121 164.2846 27 18 ellipse_path stroke
0 0 0 nodecolor
14 /Times-Roman set_font
180.6121 160.5846 moveto 10 (4) alignedtext
grestore
% 3--4
gsave
1 setlinewidth
0 0 0 edgecolor
newpath 202.3169 104.8266 moveto
198.8033 117.3328 194.1367 133.9426 190.6291 146.4274 curveto
stroke
grestore
% 5
gsave
1 setlinewidth
0 0 0 nodecolor
111.7154 196.0177 27 18 ellipse_path stroke
0 0 0 nodecolor
14 /Times-Roman set_font
106.7154 192.3177 moveto 10 (5) alignedtext
grestore
% 4--5
gsave
1 setlinewidth
0 0 0 edgecolor
newpath 162.6358 174.1512 moveto
153.6538 178.0083 143.3798 182.4202 134.4237 186.2662 curveto
stroke
grestore
% 6
gsave
1 setlinewidth
0 0 0 nodecolor
41.042 157.6568 27 18 ellipse_path stroke
0 0 0 nodecolor
14 /Times-Roman set_font
36.042 153.9568 moveto 10 (6) alignedtext
grestore
% 5--6
gsave
1 setlinewidth
0 0 0 edgecolor
newpath 90.5111 184.5082 moveto
81.5661 179.6529 71.1747 174.0126 62.2314 169.1582 curveto
stroke
grestore
% 7
gsave
1 setlinewidth
0 0 0 nodecolor
27 78.4787 27 18 ellipse_path stroke
0 0 0 nodecolor
14 /Times-Roman set_font
22 74.7787 moveto 10 (7) alignedtext
grestore
% 6--7
gsave
1 setlinewidth
0 0 0 edgecolor
newpath 37.8557 139.6901 moveto
35.5576 126.7321 32.4689 109.316 30.1737 96.3744 curveto
stroke
grestore
% 7--1
gsave
1 setlinewidth
0 0 0 edgecolor
newpath 40.6498 62.9039 moveto
48.5021 53.9442 58.3407 42.7183 66.2161 33.7322 curveto
stroke
grestore
endpage
showpage
grestore
%%PageTrailer
%%EndPage: 1
%%Trailer
%%Pages: 1
%%BoundingBox: 36 36 278 258
end
restore
%%EOF
