%!PS-Adobe-3.0
%%Creator: graphviz version 3.0.0 (0)
%%Title: %3
%%Pages: (atend)
%%BoundingBox: (atend)
%%EndComments
save
%%BeginProlog
/DotDict 200 dict def
DotDict begin

/setupLatin1 {
mark
/EncodingVector 256 array def
 EncodingVector 0

ISOLatin1Encoding 0 255 getinterval putinterval
EncodingVector 45 /hyphen put

% Set up ISO Latin 1 character encoding
/starnetISO {
        dup dup findfont dup length dict begin
        { 1 index /FID ne { def }{ pop pop } ifelse
        } forall
        /Encoding EncodingVector def
        currentdict end definefont
} def
/Times-Roman starnetISO def
/Times-Italic starnetISO def
/Times-Bold starnetISO def
/Times-BoldItalic starnetISO def
/Helvetica starnetISO def
/Helvetica-Oblique starnetISO def
/Helvetica-Bold starnetISO def
/Helvetica-BoldOblique starnetISO def
/Courier starnetISO def
/Courier-Oblique starnetISO def
/Courier-Bold starnetISO def
/Courier-BoldOblique starnetISO def
cleartomark
} bind def

%%BeginResource: procset graphviz 0 0
/coord-font-family /Times-Roman def
/default-font-family /Times-Roman def
/coordfont coord-font-family findfont 8 scalefont def

/InvScaleFactor 1.0 def
/set_scale {
       dup 1 exch div /InvScaleFactor exch def
       scale
} bind def

% styles
/solid { [] 0 setdash } bind def
/dashed { [9 InvScaleFactor mul dup ] 0 setdash } bind def
/dotted { [1 InvScaleFactor mul 6 InvScaleFactor mul] 0 setdash } bind def
/invis {/fill {newpath} def /stroke {newpath} def /show {pop newpath} def} bind def
/bold { 2 setlinewidth } bind def
/filled { } bind def
/unfilled { } bind def
/rounded { } bind def
/diagonals { } bind def
/tapered { } bind def

% hooks for setting color 
/nodecolor { sethsbcolor } bind def
/edgecolor { sethsbcolor } bind def
/graphcolor { sethsbcolor } bind def
/nopcolor {pop pop pop} bind def

/beginpage {	% i j npages
	/npages exch def
	/j exch def
	/i exch def
	/str 10 string def
	npages 1 gt {
		gsave
			coordfont setfont
			0 0 moveto
			(\() show i str cvs show (,) show j str cvs show (\)) show
		grestore
	} if
} bind def

/set_font {
	findfont exch
	scalefont setfont
} def

% draw text fitted to its expected width
/alignedtext {			% width text
	/text exch def
	/width exch def
	gsave
		width 0 gt {
			[] 0 setdash
			text stringwidth pop width exch sub text length div 0 text ashow
		} if
	grestore
} def

/boxprim {				% xcorner ycorner xsize ysize
		4 2 roll
		moveto
		2 copy
		exch 0 rlineto
		0 exch rlineto
		pop neg 0 rlineto
		closepath
} bind def

/ellipse_path {
	/ry exch def
	/rx exch def
	/y exch def
	/x exch def
	matrix currentmatrix
	newpath
	x y translate
	rx ry scale
	0 0 1 0 360 arc
	setmatrix
} bind def

/endpage { showpage } bind def
/showpage { } def

/layercolorseq
	[	% layer color sequence - darkest to lightest
		[0 0 0]
		[.2 .8 .8]
		[.4 .8 .8]
		[.6 .8 .8]
		[.8 .8 .8]
	]
def

/layerlen layercolorseq length def

/setlayer {/maxlayer exch def /curlayer exch def
	layercolorseq curlayer 1 sub layerlen mod get
	aload pop sethsbcolor
	/nodecolor {nopcolor} def
	/edgecolor {nopcolor} def
	/graphcolor {nopcolor} def
} bind def

/onlayer { curlayer ne {invis} if } def

/onlayers {
	/myupper exch def
	/mylower exch def
	curlayer mylower lt
	curlayer myupper gt
	or
	{invis} if
} def

/curlayer 0 def

%%EndResource
%%EndProlog
%%BeginSetup
14 default-font-family set_font
% /arrowlength 10 def
% /arrowwidth 5 def

% make sure pdfmark is harmless for PS-interpreters other than Distiller
/pdfmark where {pop} {userdict /pdfmark /cleartomark load put} ifelse
% make '<<' and '>>' safe on PS Level 1 devices
/languagelevel where {pop languagelevel}{1} ifelse
2 lt {
    userdict (<<) cvn ([) cvn load put
    userdict (>>) cvn ([) cvn load put
} if

%%EndSetup
setupLatin1
%%Page: 1 1
%%PageBoundingBox: 36 36 126 512
%%PageOrientation: Portrait
0 0 1 beginpage
gsave
36 36 90 476 boxprim clip newpath
1 1 set_scale 0 rotate 40 40 translate
% 1
gsave
1 setlinewidth
0 0 0 nodecolor
54 450 27 18 ellipse_path stroke
0 0 0 nodecolor
14 /Times-Roman set_font
49 446.3 moveto 10 (1) alignedtext
grestore
% 2
gsave
1 setlinewidth
0 0 0 nodecolor
27 378 27 18 ellipse_path stroke
0 0 0 nodecolor
14 /Times-Roman set_font
22 374.3 moveto 10 (2) alignedtext
grestore
% 1--2
gsave
1 setlinewidth
0 0 0 edgecolor
newpath 47.6014 432.411 moveto
43.3597 421.4141 37.8106 407.0274 33.5403 395.9562 curveto
stroke
grestore
% 3
gsave
1 setlinewidth
0 0 0 nodecolor
27 306 27 18 ellipse_path stroke
0 0 0 nodecolor
14 /Times-Roman set_font
22 302.3 moveto 10 (3) alignedtext
grestore
% 2--3
gsave
1 setlinewidth
0 0 0 edgecolor
newpath 27 359.6966 moveto
27 348.8463 27 334.9167 27 324.1043 curveto
stroke
grestore
% 4
gsave
1 setlinewidth
0 0 0 nodecolor
27 234 27 18 ellipse_path stroke
0 0 0 nodecolor
14 /Times-Roman set_font
22 230.3 moveto 10 (4) alignedtext
grestore
% 3--4
gsave
1 setlinewidth
0 0 0 edgecolor
newpath 27 287.6966 moveto
27 276.8463 27 262.9167 27 252.1043 curveto
stroke
grestore
% 5
gsave
1 setlinewidth
0 0 0 nodecolor
27 162 27 18 ellipse_path stroke
0 0 0 nodecolor
14 /Times-Roman set_font
22 158.3 moveto 10 (5) alignedtext
grestore
% 4--5
gsave
1 setlinewidth
0 0 0 edgecolor
newpath 27 215.6966 moveto
27 204.8463 27 190.9167 27 180.1043 curveto
stroke
grestore
% 6
gsave
1 setlinewidth
0 0 0 nodecolor
27 90 27 18 ellipse_path stroke
0 0 0 nodecolor
14 /Times-Roman set_font
22 86.3 moveto 10 (6) alignedtext
grestore
% 5--6
gsave
1 setlinewidth
0 0 0 edgecolor
newpath 27 143.6966 moveto
27 132.8463 27 118.9167 27 108.1043 curveto
stroke
grestore
% 7
gsave
1 setlinewidth
0 0 0 nodecolor
54 18 27 18 ellipse_path stroke
0 0 0 nodecolor
14 /Times-Roman set_font
49 14.3 moveto 10 (7) alignedtext
grestore
% 6--7
gsave
1 setlinewidth
0 0 0 edgecolor
newpath 33.3986 72.411 moveto
37.6403 61.4141 43.1894 47.0274 47.4597 35.9562 curveto
stroke
grestore
% 7--1
gsave
1 setlinewidth
0 0 0 edgecolor
newpath 59.5319 35.8374 moveto
67.692 62.2129 82 115.0167 82 161 curveto
82 307 82 307 82 307 curveto
82 352.9833 67.692 405.7871 59.5319 432.1626 curveto
stroke
grestore
endpage
showpage
grestore
%%PageTrailer
%%EndPage: 1
%%Trailer
%%Pages: 1
%%BoundingBox: 36 36 126 512
end
restore
%%EOF
