\relax 
\@writefile{toc}{\contentsline {section}{\numberline {1}Introduction}{3}}
\@writefile{toc}{\contentsline {subsection}{\numberline {1.1}Asking and contributing to cgn}{3}}
\@writefile{toc}{\contentsline {subsection}{\numberline {1.2}No warranty}{3}}
\@writefile{toc}{\contentsline {section}{\numberline {2}Plotting functions}{3}}
\@writefile{lof}{\contentsline {figure}{\numberline {1}{\ignorespaces cos(x)}}{4}}
\newlabel{test}{{1}{4}}
\@writefile{toc}{\contentsline {section}{\numberline {3}Plotting scatter graphics}{4}}
\@writefile{lof}{\contentsline {figure}{\numberline {2}{\ignorespaces A circle}}{5}}
\newlabel{test}{{2}{5}}
\@writefile{toc}{\contentsline {section}{\numberline {4}Configuring gnuplot}{5}}
\@writefile{lof}{\contentsline {figure}{\numberline {3}{\ignorespaces A f(x,y) function}}{6}}
\newlabel{test}{{3}{6}}
\@writefile{toc}{\contentsline {section}{\numberline {5}Printing}{6}}
\@writefile{toc}{\contentsline {section}{\numberline {6}Saving/loading}{6}}
\@writefile{lof}{\contentsline {figure}{\numberline {4}{\ignorespaces A beautiful cilinder}}{7}}
\newlabel{test}{{4}{7}}
\@writefile{lof}{\contentsline {figure}{\numberline {5}{\ignorespaces A scatter graphic}}{7}}
\newlabel{test}{{5}{7}}
\@writefile{toc}{\contentsline {section}{\numberline {7}Creating animations}{8}}
\@writefile{toc}{\contentsline {section}{\numberline {8}Debugging cgn}{8}}
\@writefile{toc}{\contentsline {section}{\numberline {9}Inside Cgn}{8}}
\@writefile{toc}{\contentsline {subsection}{\numberline {9.1}Extending Cgn}{9}}
\@writefile{lof}{\contentsline {figure}{\numberline {6}{\ignorespaces Before calling set-property}}{10}}
\newlabel{test}{{6}{10}}
\@writefile{toc}{\contentsline {section}{\numberline {10}Seeing release info}{10}}
\@writefile{lof}{\contentsline {figure}{\numberline {7}{\ignorespaces After calling set-property. Watch the timestamp.}}{11}}
\newlabel{test}{{7}{11}}
\@writefile{toc}{\contentsline {section}{\numberline {11}Changelog}{11}}
\@writefile{toc}{\contentsline {section}{\numberline {12}Bibliography}{12}}
